{
    "CSSFileFilterDescription": {
        "message": "Folhas de Estilo CSS"
    },
    "CSSFilePickerDialogTitle": {
        "message": "Agarrar o Folhas de Estilo to a usar"
    },
    "ConfirmAutoDetachSettingDialogMessage2": {
        "message": "Enabling detach/delete attachments will remove attachments from all incoming emails that fit the criteria you specified (potentially all emails), based on selected options maybe without further confirmation. \\n\\nIf there is an error it may result in either losing the attachment or the email contents, or both. \\n\\nDo not enable this if you can't risk losing attachments and your incoming emails. \\n\\nUse at your own risk."
    },
    "ConfirmDetachDialogMessage2": {
        "message": "You have chosen to detach attachments with AttachmentExtractor. There will be no further confirmation messages after this and every attachment will be deleted from the selected emails. Once deleted this cannot be undone. \\n\\nStill Proceed?"
    },
    "ConfirmDetachDialogTitle2": {
        "message": "Confirm Detaching"
    },
    "ConfirmDetachSettingDialogMessage2": {
        "message": "Please be aware that this method may not work properly in all cases. \\n\\nIf there is an error it may result in either losing the attachments or the email contents, or both.  If this happens there is no easy way of recovering what's been lost so it is inadvisable to use it with important emails. Create Backups before using this feature. \\n\\nUse at your own risk."
    },
    "ConfirmDetachSettingDialogTitle2": {
        "message": "Warning!"
    },
    "DateTime": {
        "message": "Data/Hora"
    },
    "DeleteLinkedFileMessage": {
        "message": "Já usou o AttachmentExtractor antes para extrair anexos desta mensagem. Deseja também eliminar os do seu computador?"
    },
    "DeleteLinkedFileTitle": {
        "message": "AttachmentExtractor: Eliminar o ficheiro que extraiu?"
    },
    "DoneExtractingDialogMessage": {
        "message": "Extracção Finalizada!"
    },
    "DoneExtractingDialogNotifyAgain": {
        "message": "Continuar a avisar-me."
    },
    "DoneExtractingDialogTitle": {
        "message": "Feito"
    },
    "ExecutableFilePickerDialogTitle": {
        "message": "Escolha a aplicação a usar"
    },
    "ExtractionEnded": {
        "message": "Extracção terminada [à Data/Hora: $P1$]",
        "placeholders": {
            "P1": {
                "content": "$1"
            }
        }
    },
    "ExtractionStarted": {
        "message": "Extracção iniciada [à Data/Hora: $P1$]",
        "placeholders": {
            "P1": {
                "content": "$1"
            }
        }
    },
    "FileNamePatternDialogAskAlways": {
        "message": "Ask always for filename pattern"
    },
    "FileNamePatternDialogMessage": {
        "message": "Modificar o nome do ficheiro do anexo:"
    },
    "FileNamePatternDialogQuestion": {
        "message": "Aplicar o padrão como pré-definido a partir de agora"
    },
    "FileNamePatternDialogTitle": {
        "message": "Introdução do nome do ficheiro"
    },
    "FileNamePatternFixMessage": {
        "message": "O nome do ficheiro ou padrão de contagem que introduziu é inválido e poderá partir o AttachmentExtractor.\\nMudar para:\\n %1$s?"
    },
    "FileNamePatternFixTitle": {
        "message": "Reparação sugerida"
    },
    "FolderPickerDialogTitle": {
        "message": "Seleccione pasta a usar"
    },
    "FolderPickerDialogTitleDefaultAutoextractPath": {
        "message": "Auto-Extract Save Path not defined - Select folder to use"
    },
    "FolderPickerDialogTitleDefaultSavePath": {
        "message": "Default Save Path not defined - Select folder to use"
    },
    "From": {
        "message": "De"
    },
    "GenericErrorDialog": {
        "message": "Whoops!"
    },
    "GenericErrorMessage3": {
        "message": "Something has gone wrong with AttachmentExtractor.  If this happens regularly please log a bug on the bugtracker on https://gitlab.com/ThunderbirdMailDE/attachment-extractor-continued/issues with the error details shown in Thunderbird's Error Console."
    },
    "Heading": {
        "message": "Resumo do Extractor de Anexos"
    },
    "OverwriteDialogDontAskAgain": {
        "message": "Não perguntar de novo, fazer sempre isto."
    },
    "OverwriteDialogIgnore": {
        "message": "Saltar este anexo"
    },
    "OverwriteDialogMessage": {
        "message": "% já existe. Deseja:"
    },
    "OverwriteDialogRename": {
        "message": "Criar um novo nome de ficheiro"
    },
    "OverwriteDialogReplace": {
        "message": "Sobrescrever o ficheiro existente"
    },
    "OverwriteDialogTitle": {
        "message": "O Ficheiro já existe!"
    },
    "ProgressDialogProgressOf": {
        "message": "[%1$s] de [%2$s]"
    },
    "ProgressDialogProgressText": {
        "message": "Mensagem [%1$s] de [%2$s]"
    },
    "ProgressDialogProgressText2": {
        "message": "Anexo [%1$s] de [%2$s]"
    },
    "ProgressDialogProgressTextFile": {
        "message": "%1$s KiB de %2$s KiB"
    },
    "ReportTitle": {
        "message": "Relatório AE ReportGen"
    },
    "StatusTextAttachment": {
        "message": "Extracção AE: A extrair anexo [%1$s] de [%2$s]"
    },
    "StatusTextEnded": {
        "message": "Extracção AE efectuada"
    },
    "StatusTextStarting": {
        "message": "A iniciar a extracção AE como anexos seleccionados"
    },
    "StatusTextTidying": {
        "message": "Extracção AE: Extracção do Anexo %1$s efectuada, a terminar…"
    },
    "Subject": {
        "message": "Assunto"
    },
    "To": {
        "message": "Para"
    },
    "WarningDoNotShowAgain": {
        "message": "Do not show this warning again."
    },
    "WarningJustDelete": {
        "message": "This will delete the file attachments from the selected messages without further confirmation. Once deleted this cannot be undone. \\n\\nThe file attachments will NOT be saved! \\n\\nDo you really want this?"
    },
    "WarningSaveThenDelete": {
        "message": "File attachments will be saved and then deleted from the selected messages without further confirmation. Once deleted this cannot be undone. \\n\\nDo you really want this?"
    },
    "WarningTitle": {
        "message": "Warning"
    },
    "browse.accesskey": {
        "message": "B"
    },
    "browse.label": {
        "message": "Browse…"
    },
    "extensionDescription": {
        "message": "Extracts all attachments from selected messages and then can delete, detach and more"
    },
    "extensionName": {
        "message": "AttachmentExtractor Continued"
    },
    "extractFoldersTo_label": {
        "message": "AE Extract from Messages in Folders"
    },
    "extractMessagesTo_label": {
        "message": "AE Extract from Messages"
    },
    "extractMultipleAttTo.label": {
        "message": "AE Extract all"
    },
    "extractSingleAttTo.label": {
        "message": "AE Extract"
    },
    "extractTo.accesskey": {
        "message": "x"
    },
    "extractTo.label": {
        "message": "AE Extract Attachments"
    },
    "extractToBrowse.accesskey": {
        "message": "B"
    },
    "extractToBrowse_label": {
        "message": "Browse…"
    },
    "extractToDefault.accesskey": {
        "message": "D"
    },
    "extractToDefault_label": {
        "message": "To Default Folder"
    },
    "extractToFavoritefolders.accesskey": {
        "message": "F"
    },
    "extractToFavoritefolders_label": {
        "message": "To Favorite Folder"
    },
    "extractToMRUfolders.accesskey": {
        "message": "M"
    },
    "extractToMRUfolders_label": {
        "message": "To Most Recently Used Folder"
    },
    "extractToSuggestfolders.accesskey": {
        "message": "S"
    },
    "extractToSuggestfolders_label": {
        "message": "To Suggested Folder…"
    },
    "extractWithCustomPattern.accesskey": {
        "message": "W"
    },
    "extractWithCustomPattern.label": {
        "message": "With a Custom Filename Pattern"
    },
    "extractWithSubToBrowse.accesskey": {
        "message": "r"
    },
    "extractWithSubToBrowse.label": {
        "message": "Browse… (inc. Subfolders)"
    },
    "extractWithSubToDefault.accesskey": {
        "message": "e"
    },
    "extractWithSubToDefault.label": {
        "message": "To Default Folder (inc. Subfolders)"
    },
    "extractWithSubToFavoritefolders.accesskey": {
        "message": "a"
    },
    "extractWithSubToFavoritefolders.label": {
        "message": "To Favorite Folder (inc. Subfolders)"
    },
    "extractWithSubToMRUfolders.accesskey": {
        "message": "o"
    },
    "extractWithSubToMRUfolders.label": {
        "message": "Most Recently Used Folder (inc. Subfolders)"
    },
    "extractWithSubToSuggestfolders.accesskey": {
        "message": "u"
    },
    "extractWithSubToSuggestfolders.label": {
        "message": "To Suggested Folder (inc. Subfolders)…"
    },
    "filenamepatterndialog.askalways.accesskey": {
        "message": "A"
    },
    "filenamepatterndialog.askalways.label": {
        "message": "Ask always for filename pattern"
    },
    "filenamepatterndialog.checkbox.accesskey": {
        "message": "g"
    },
    "filenamepatterndialog.checkbox.label": {
        "message": "Aplicar o tipo como pré-definição a partir de agora"
    },
    "filenamepatterndialog.input.label": {
        "message": "Modificar o tipo de nome de ficheiro do anexo:"
    },
    "filenamepatterndialog.title": {
        "message": "Introdução do tipo de nome do ficheiro"
    },
    "filenamepatterndialog.tokenbutton.label": {
        "message": "Clique para adicionar um token"
    },
    "headerbutton_label": {
        "message": "AE Extrair"
    },
    "headerbutton_tooltip": {
        "message": "Extrair Anexos das Mensagens Seleccionadas"
    },
    "justDeleteAllAttachments.accesskey": {
        "message": "l"
    },
    "justDeleteAllAttachments.label": {
        "message": "Eliminar Anexos de Todas as Mensagens na Pasta"
    },
    "justDeleteAttachments.accesskey": {
        "message": "E"
    },
    "justDeleteAttachments_label": {
        "message": "Eliminar Apenas Anexos das Mensagens Seleccionadas"
    },
    "progress.status.attachment.text": {
        "message": "Anexos"
    },
    "progress.status.file.text": {
        "message": "Progresso"
    },
    "progress.status.message.text": {
        "message": "Mensagens"
    },
    "progress.status1.text": {
        "message": "A Extrair…"
    },
    "progress.status2.text": {
        "message": "Por favor aguarde."
    },
    "progress.windowtitle": {
        "message": "Extractor de Anexos em funcionamento"
    },
    "settings.SeparatedByComma": {
        "message": "(Comma separated)"
    },
    "settings.SeparatedBySemicolon": {
        "message": "(Semicolon separated)"
    },
    "settings.abouttab.label": {
        "message": "Sobre"
    },
    "settings.advancedmoretab.label": {
        "message": "Mais"
    },
    "settings.advancedtab.label": {
        "message": "Avançado"
    },
    "settings.after-delete.accesskey": {
        "message": "A"
    },
    "settings.after-delete.label": {
        "message": "Apagar esta mensagem?"
    },
    "settings.after-detach.accesskey": {
        "message": "g"
    },
    "settings.after-detach.confirm.accesskey": {
        "message": "w"
    },
    "settings.after-detach.confirm.label": {
        "message": "Delete without confirmation"
    },
    "settings.after-detach.label": {
        "message": "Apagar o anexo da mensagem?"
    },
    "settings.after-read.accesskey": {
        "message": "M"
    },
    "settings.after-read.label": {
        "message": "Marcar a mensagem como Lida?"
    },
    "settings.after-savemessage.accesskey": {
        "message": "G"
    },
    "settings.after-savemessage.label": {
        "message": "Guardar mensagem txt para ficheiro. (nota:Mesmo padrão para normal e auo-extracção)"
    },
    "settings.afterextractpolicy.label": {
        "message": "Após extrair os anexos deveremos:"
    },
    "settings.autoextract.accesskey": {
        "message": "x"
    },
    "settings.autoextract.cleartriggertag.accesskey": {
        "message": "m"
    },
    "settings.autoextract.cleartriggertag.label": {
        "message": "Limpar etiqueta das mensagens?"
    },
    "settings.autoextract.label": {
        "message": "Extrair os Anexos automaticamente do recibo de leitura"
    },
    "settings.autoextract.onattachmentsonly.accesskey": {
        "message": "o"
    },
    "settings.autoextract.onattachmentsonly.label": {
        "message": "Iniciar apenas a auto-extracção em mensagens que pareçam ter anexos"
    },
    "settings.autoextract.ontriggeronly.accesskey": {
        "message": "u"
    },
    "settings.autoextract.ontriggeronly.label": {
        "message": "Auto Extrair apenas quando a nova mensagem for etiquetada com uma etiqueta coincidente."
    },
    "settings.autoextract.savefolder.browsebutton": {
        "message": "Navegar…"
    },
    "settings.autoextract.savefolder.label": {
        "message": "Guardar o caminho para os anexos:"
    },
    "settings.autoextract.triggertag.label": {
        "message": "Extrair mensagens se a etiqueta coincidir:"
    },
    "settings.autoextract.waitforall.accesskey": {
        "message": "E"
    },
    "settings.autoextract.waitforall.label": {
        "message": "Esperar para que todas as mensagens sejam transferidas antes de Auto Extrair."
    },
    "settings.autotab.label": {
        "message": "Auto Extrair"
    },
    "settings.debug.accesskey": {
        "message": "v"
    },
    "settings.debug.caption": {
        "message": "Depuração"
    },
    "settings.debug.label": {
        "message": "Activar o modo de depuração ao reiniciar. As mensagens são registadas na consola e escritas em &apos;aec_debug.txt&apos; na sua pasta de perfil."
    },
    "settings.doextract.accesskey": {
        "message": "x"
    },
    "settings.doextract.label": {
        "message": "Extract the Attachments."
    },
    "settings.extract.caption": {
        "message": "Guardar Ficheiro anexo"
    },
    "settings.extract.minimumsize.caption": {
        "message": "Verificação do Tamanho Mínimo"
    },
    "settings.extract.minsize_1024_bytes_SI-Unit_KiB-end.label": {
        "message": "KiB"
    },
    "settings.extract.minsize_1024_bytes_SI-Unit_KiB-start.label": {
        "message": "Guardar anexos apenas se forem maiores do que:"
    },
    "settings.favoritefolder.addbutton.label": {
        "message": "Adicionar…"
    },
    "settings.favoritefolder.clearbutton.label": {
        "message": "Limpar"
    },
    "settings.favoritefolder.description": {
        "message": "The Favorite Folders allow for a given, faster selection."
    },
    "settings.favoritefolder.dialogtitle": {
        "message": "Favorite Folders"
    },
    "settings.favoritefolder.parents.label": {
        "message": "The following folders are displayed as favorites:"
    },
    "settings.filenamepattern.askalways.accesskey": {
        "message": "A"
    },
    "settings.filenamepattern.askalways.label": {
        "message": "Ask always for filename pattern"
    },
    "settings.filenamepattern.explanation.attachment": {
        "message": "Um anexo com o nome (#namepart##extpart#):"
    },
    "settings.filenamepattern.explanation.caption": {
        "message": "Baseado numa mensagem a ser recebida com as seguintes propriedades:"
    },
    "settings.filenamepattern.explanation.fromauthor2": {
        "message": "Do autor (#from# &lt;#fromemail#&gt;):"
    },
    "settings.filenamepattern.explanation.mailfolder": {
        "message": "Na pasta de correio (#pasta#)"
    },
    "settings.filenamepattern.explanation.recieveddate": {
        "message": "Recebido a (#data#):"
    },
    "settings.filenamepattern.explanation.recieveddateformatted": {
        "message": "Data/Hora após aplicação do padrão:"
    },
    "settings.filenamepattern.explanation.withcleansubject": {
        "message": "Assunto após remoção de &apos;re:&apos;,etc :"
    },
    "settings.filenamepattern.explanation.withsubject": {
        "message": "Um assunto (#assunto#) de correio de:"
    },
    "settings.filenamepattern.explanation.wouldgenerate": {
        "message": "Irá gerar primeiro:"
    },
    "settings.filenamepattern.explanation.wouldgeneratethen": {
        "message": "Seguido por:"
    },
    "settings.filenamepattern.label": {
        "message": "Padrão usado para criar nomes de ficheiros"
    },
    "settings.filenamepatterncleansubjectq.accesskey": {
        "message": "U"
    },
    "settings.filenamepatterncleansubjectq.label": {
        "message": "Usar?"
    },
    "settings.filenamepatterncount.label": {
        "message": "Padrão usado para duplicar nomes de ficheiros (#conta#):"
    },
    "settings.filenamepatterndate.dialogtitle": {
        "message": "Definição #Data#"
    },
    "settings.filenamepatterndate.editbutton.label": {
        "message": "Editar Data"
    },
    "settings.filenamepatterndate.homepage.label": {
        "message": "Referencia para a formatação dos códigos para #data#:"
    },
    "settings.filenamepatterndate.label": {
        "message": "Padrão usado na data (#data#):"
    },
    "settings.filenamepatterngroup.label": {
        "message": "Criar padrão do nome do ficheiro:"
    },
    "settings.filenametab.label": {
        "message": "Nomes dos Ficheiros"
    },
    "settings.folderstab.label": {
        "message": "Folders"
    },
    "settings.generaltab.label": {
        "message": "Geral"
    },
    "settings.homepage.label": {
        "message": "Página inicial do Extractor de Anexos com a descrição e características:"
    },
    "settings.includeexcludepolicy2-false.accesskey": {
        "message": "s"
    },
    "settings.includeexcludepolicy2-false.label": {
        "message": "Extrair todos os ficheiros excepto os que tenham o nome:"
    },
    "settings.includeexcludepolicy2-true.accesskey": {
        "message": "r"
    },
    "settings.includeexcludepolicy2-true.label": {
        "message": "Extrair apenas os ficheiros em que o nome tenha:"
    },
    "settings.includeexcludepolicy2.label": {
        "message": "Politica de filtragem do nome do ficheiro:"
    },
    "settings.inlinepolicy.accesskey": {
        "message": "i"
    },
    "settings.inlinepolicy.label": {
        "message": "Extrair também imagens embutidas (&apos;inline&apos;)"
    },
    "settings.noextract.accesskey": {
        "message": "D"
    },
    "settings.noextract.label": {
        "message": "Desactivar a guarda dos anexos."
    },
    "settings.notifywhendone.accesskey": {
        "message": "o"
    },
    "settings.notifywhendone.label": {
        "message": "Notificar-me quando todos os anexos forem extraídos."
    },
    "settings.overwrite-ask.accesskey": {
        "message": "P"
    },
    "settings.overwrite-ask.label": {
        "message": "Perguntar-me de cada vez"
    },
    "settings.overwrite-ignore.accesskey": {
        "message": "M"
    },
    "settings.overwrite-ignore.label": {
        "message": "Manter sempre o ficheiro existente, não extrair o anexo"
    },
    "settings.overwrite-rename.accesskey": {
        "message": "z"
    },
    "settings.overwrite-rename.label": {
        "message": "Fazer um novo nome para o anexo, de maneira a manter ambos"
    },
    "settings.overwrite-replace.accesskey": {
        "message": "S"
    },
    "settings.overwrite-replace.label": {
        "message": "Substituir sempre o ficheiro existente pelo novo anexo"
    },
    "settings.overwritepolicy.label": {
        "message": "O que fazer quando existir um ficheiro com o mesmo nome do anexo?"
    },
    "settings.posttab.label": {
        "message": "Após extracção"
    },
    "settings.progressdialogtext.accesskey": {
        "message": "M"
    },
    "settings.progressdialogtext.label": {
        "message": "Mostrar o assunto e o anexo da mensagem no dialogo de progresso"
    },
    "settings.protocolltab.label": {
        "message": "Logs"
    },
    "settings.queuerequests.caption": {
        "message": "Extracções em Espera"
    },
    "settings.queuerequests.disabled.accesskey": {
        "message": "I"
    },
    "settings.queuerequests.disabled.label": {
        "message": "Iniciar o AttachmentExtractor  rapidamente  assim que for pedida uma extração."
    },
    "settings.queuerequests.enabled.accesskey": {
        "message": "A"
    },
    "settings.queuerequests.enabled.label": {
        "message": "Aguardar e esperar por qualquer extracção enquanto o AE está em execução."
    },
    "settings.reportgen.accesskey": {
        "message": "G"
    },
    "settings.reportgen.button.label": {
        "message": "Definições do gerador de relatórios…"
    },
    "settings.reportgen.caption": {
        "message": "Gerador de Resumo HTML"
    },
    "settings.reportgen.cssfile.caption": {
        "message": "Folha de Estilo a usar no resumo"
    },
    "settings.reportgen.embedcss.accesskey": {
        "message": "I"
    },
    "settings.reportgen.embedcss.label": {
        "message": "Introduzir a informação do estilo no relatório, em vez de ligar á folha de estilos."
    },
    "settings.reportgen.label": {
        "message": "Gerar um resumo sempre que o Extractor de Anexos correr."
    },
    "settings.reportgen.reportname2.label": {
        "message": "Nome do ficheiro (ou caminho) do relatório:"
    },
    "settings.reportgen.thumbnail.accesskey": {
        "message": "i"
    },
    "settings.reportgen.thumbnail.label": {
        "message": "Usar miniaturas de imagens para os anexos sempre que possível."
    },
    "settings.reporttab.label": {
        "message": "ReportGen"
    },
    "settings.requiresrestart.label": {
        "message": "(Necessita um Reinício do TB para ter efeito)"
    },
    "settings.returnreceipts.button.label": {
        "message": "Recibos de leitura…"
    },
    "settings.returnreceipts.dialogtitle": {
        "message": "Recibos de leitura"
    },
    "settings.returnreceipts.enabled.accesskey": {
        "message": "c"
    },
    "settings.returnreceipts.enabled.label": {
        "message": "Enviar recibos de leitura se pedidos"
    },
    "settings.returnreceipts.label": {
        "message": "O AttachmentExtractor pode enviar recibos de leitura automaticamente quando uma mensagem é marcada como lida"
    },
    "settings.returnreceipts.override.caption": {
        "message": "Pedidos de recibos de leitura:"
    },
    "settings.returnreceipts.override.disabled.accesskey": {
        "message": "T"
    },
    "settings.returnreceipts.override.disabled.label": {
        "message": "Seguir as preferências dos recibos de leitura do Thunderbird"
    },
    "settings.returnreceipts.override.enabled.accesskey": {
        "message": "p"
    },
    "settings.returnreceipts.override.enabled.label": {
        "message": "Sobrepor a definição &apos;perguntar-me&apos; e enviar recibos de leitura quando preparado"
    },
    "settings.savefolder.browsebutton": {
        "message": "Navegar…"
    },
    "settings.savefolder.label": {
        "message": "Caminho Pré-definido para guardar:"
    },
    "settings.savefolders.caption": {
        "message": "Onde é que o anexo deve ser guardado?"
    },
    "settings.savepathmru.accesskey": {
        "message": "l"
    },
    "settings.savepathmru.caption": {
        "message": "Pastas usadas Recentemente"
    },
    "settings.savepathmru.clearbutton.label": {
        "message": "Limpar Agora"
    },
    "settings.savepathmru.count.label1": {
        "message": "Guarda a última"
    },
    "settings.savepathmru.count.label2": {
        "message": "pasta."
    },
    "settings.savepathmru.label": {
        "message": "Activar lista da Pastas usadas Recentemente"
    },
    "settings.setdatetoemail.accesskey": {
        "message": "j"
    },
    "settings.setdatetoemail.label": {
        "message": "Ajustar a data/hora de modificação do anexo à data/hora de recepção da mensagem."
    },
    "settings.showprogressdialog.accesskey": {
        "message": "o"
    },
    "settings.showprogressdialog.label": {
        "message": "Mostra um diálogo da evolução ao extrair."
    },
    "settings.skipidentical.accesskey": {
        "message": "S"
    },
    "settings.skipidentical.label": {
        "message": "Saltar ficheiros com tamanhos idênticos"
    },
    "settings.suggestfolder.addbutton.label": {
        "message": "Adicionar…"
    },
    "settings.suggestfolder.clearbutton.label": {
        "message": "Limpar"
    },
    "settings.suggestfolder.description": {
        "message": "Uma pasta pode ser sugerida para extracção nas palavras chave das linhas de assunto das mensagens que selecciona."
    },
    "settings.suggestfolder.dialogtitle": {
        "message": "Pastas sugeridas"
    },
    "settings.suggestfolder.disregardduplicates.accesskey": {
        "message": "I"
    },
    "settings.suggestfolder.disregardduplicates.label": {
        "message": "Ignorar palavras chave duplicadas ao pontuar as pastas sugeridas?"
    },
    "settings.suggestfolder.excludedkeywords.label": {
        "message": "Palavras chave a excluir:(separadas por vírgulas)"
    },
    "settings.suggestfolder.parents.label": {
        "message": "Pastas que contêm sub-pastas potencias para onde extrair:"
    },
    "settings.windowtitle": {
        "message": "Definições do Extractor de Anexos"
    },
    "suggestedFolderDialog.acceptbutton": {
        "message": "Usar a pasta seleccionada"
    },
    "suggestedFolderDialog.label": {
        "message": "Pastas sugeridas baseado nas linhas de assunto das mensagens seleccionadas:"
    },
    "suggestedFolderDialog.title": {
        "message": "AttachmentExtractor - Pastas sugeridas:"
    },
    "toolbarbutton_label": {
        "message": "AE Extrair"
    },
    "toolbarbutton_tooltip": {
        "message": "Extrair Anexos das Mensagens Seleccionadas"
    }
}