{
    "CSSFileFilterDescription": {
        "message": "CSS-stylesheets"
    },
    "CSSFilePickerDialogTitle": {
        "message": "Kies een te gebruiken stylesheet"
    },
    "ConfirmAutoDetachSettingDialogMessage2": {
        "message": "Het inschakelen van ontkoppeling/verwijdering van bijlagen verwijdert bijlagen van alle ontvangen e-mailberichten die aan de door u opgegeven criteria voldoen (mogelijk alle berichten), gebaseerd op geselecteerde opties mogelijk zonder verdere bevestiging. \\n\\nAls er een fout optreedt, kan dit leiden tot verlies van de bijlagen of de berichtinhoud, of beide. \\n\\nSchakel dit niet in als u verlies van bijlagen en ontvangen berichten niet kunt riskeren. \\n\\nGebruik is voor eigen risico."
    },
    "ConfirmDetachDialogMessage2": {
        "message": "U hebt ervoor gekozen om bijlagen met AttachmentExtractor te ontkoppelen. Er volgen hierna geen bevestigingsberichten meer en elke bijlage zal uit de geselecteerde e-mailberichten worden verwijderd. \\n\\nDoorgaan?"
    },
    "ConfirmDetachDialogTitle2": {
        "message": "Ontkoppeling bevestigen"
    },
    "ConfirmDetachSettingDialogMessage2": {
        "message": "Realiseer u dat deze methode mogelijk niet in alle gevallen goed werkt. \\n\\nAls er een fout optreedt, kan dit leiden tot verlies van de bijlagen of de berichtinhoud, of beide. Als dit gebeurt is er geen eenvoudige manier om dit te herstellen, dus gebruik bij belangrijke berichten wordt niet aanbevolen. Maak een back-up voordat u deze functie gebruikt. \\n\\nGebruik is voor eigen risico."
    },
    "ConfirmDetachSettingDialogTitle2": {
        "message": "Waarschuwing!"
    },
    "DateTime": {
        "message": "Datum/tijd"
    },
    "DeleteLinkedFileMessage": {
        "message": "U hebt al eens AttachmentExtractor gebruikt om bijlagen uit dit bericht uit te pakken. Wilt u die bestanden ook van uw computer verwijderen?"
    },
    "DeleteLinkedFileTitle": {
        "message": "AttachmentExtractor: Uitgepakt bestand verwijderen?"
    },
    "DoneExtractingDialogMessage": {
        "message": "Uitpakken voltooid!"
    },
    "DoneExtractingDialogNotifyAgain": {
        "message": "Houd mij op de hoogte."
    },
    "DoneExtractingDialogTitle": {
        "message": "Voltooid"
    },
    "ExecutableFilePickerDialogTitle": {
        "message": "Kies te gebruiken toepassing"
    },
    "ExtractionEnded": {
        "message": "Uitpakken beëindigd [op datum/tijd: $P1$]",
        "placeholders": {
            "P1": {
                "content": "$1"
            }
        }
    },
    "ExtractionStarted": {
        "message": "Uitpakken gestart [op datum/tijd: $P1$]",
        "placeholders": {
            "P1": {
                "content": "$1"
            }
        }
    },
    "FileNamePatternDialogAskAlways": {
        "message": "Altijd vragen om bestandsnaampatroon"
    },
    "FileNamePatternDialogMessage": {
        "message": "Het bestandsnaampatroon van bijlages aanpassen:"
    },
    "FileNamePatternDialogQuestion": {
        "message": "Dit patroon vanaf nu als standaard instellen"
    },
    "FileNamePatternDialogTitle": {
        "message": "Ingave bestandsnaampatroon"
    },
    "FileNamePatternFixMessage": {
        "message": "De bestandsnaam of het telpatroon dat u hebt ingevoerd is ongeldig en kan AttachmentExtractor laten struikelen.\\nWijzigen in:\\n %1$s?"
    },
    "FileNamePatternFixTitle": {
        "message": "Voorgestelde oplossing"
    },
    "FolderPickerDialogTitle": {
        "message": "Selecteer te gebruiken map"
    },
    "FolderPickerDialogTitleDefaultAutoextractPath": {
        "message": "Pad voor automatisch opslaan niet gedefinieerd – Selecteer te gebruiken map"
    },
    "FolderPickerDialogTitleDefaultSavePath": {
        "message": "Standaardpad voor opslaan niet gedefinieerd – Selecteer te gebruiken map"
    },
    "From": {
        "message": "Van"
    },
    "GenericErrorDialog": {
        "message": "Oeps!"
    },
    "GenericErrorMessage3": {
        "message": "Er is iets misgegaan met AttachmentExtractor. Als dit vaker gebeurt, meld dan een bug op de bugtracker op https://gitlab.com/ThunderbirdMailDE/attachment-extractor-continued/issues, met de foutdetails zoals die in de foutconsole van Thunderbird worden weergegeven."
    },
    "Heading": {
        "message": "AttachmentExtractor rapport"
    },
    "OverwriteDialogDontAskAgain": {
        "message": "Niet nog eens vragen, dit altijd doen."
    },
    "OverwriteDialogIgnore": {
        "message": "deze bijlage overslaan"
    },
    "OverwriteDialogMessage": {
        "message": "% bestaat al. Wilt u:"
    },
    "OverwriteDialogRename": {
        "message": "een nieuwe bestandsnaam aanmaken"
    },
    "OverwriteDialogReplace": {
        "message": "het bestaande bestand overschrijven"
    },
    "OverwriteDialogTitle": {
        "message": "Dit bestand bestaat al!"
    },
    "ProgressDialogProgressOf": {
        "message": "[%1$s] van [%2$s]"
    },
    "ProgressDialogProgressText": {
        "message": "Bericht [%1$s] van [%2$s]"
    },
    "ProgressDialogProgressText2": {
        "message": "Bijlage [%1$s] van [%2$s]"
    },
    "ProgressDialogProgressTextFile": {
        "message": "%1$sKB van %2$sKB"
    },
    "ReportTitle": {
        "message": "AE RapportGen-rapport"
    },
    "StatusTextAttachment": {
        "message": "AE uitpakken: Bijlage [%1$s] van [%2$s] wordt uitgepakt"
    },
    "StatusTextEnded": {
        "message": "AE uitpakken afgerond"
    },
    "StatusTextStarting": {
        "message": "AE uitpakken wordt gestart voor geselecteerde bijlage(n)"
    },
    "StatusTextTidying": {
        "message": "AE uitpakken: Bijlage %1$s is uitgepakt, afronden…"
    },
    "Subject": {
        "message": "Onderwerp"
    },
    "To": {
        "message": "Aan"
    },
    "WarningDoNotShowAgain": {
        "message": "Deze waarschuwing niet meer laten zien."
    },
    "WarningJustDelete": {
        "message": "Dit verwijdert de bijlagen uit het geselecteerde bericht zonder verdere bevestiging. Verwijdering kan niet ongedaan worden gemaakt. \\n\\nDe bijlagen worden NIET opgeslagen!\\n\\nWilt u dit echt doen?"
    },
    "WarningSaveThenDelete": {
        "message": "Bijlagen worden opgeslagen en daarna verwijderd uit de geselecteerde berichten zonder verdere bevestiging. Verwijdering kan niet ongedaan worden gemaakt. \\n\\nWilt u dit echt?"
    },
    "WarningTitle": {
        "message": "Waarschuwing"
    },
    "browse.accesskey": {
        "message": "B"
    },
    "browse.label": {
        "message": "Bladeren…"
    },
    "extensionDescription": {
        "message": "Pakt alle bijlagen bij geselecteerde berichten uit en kan vervolgens verwijderen, ontkoppelen en meer"
    },
    "extensionName": {
        "message": "AttachmentExtractor Continued"
    },
    "extractFoldersTo_label": {
        "message": "AE uitpakken uit berichten in mappen"
    },
    "extractMessagesTo_label": {
        "message": "AE uitpakken uit berichten"
    },
    "extractMultipleAttTo.label": {
        "message": "AE alles uitpakken"
    },
    "extractSingleAttTo.label": {
        "message": "AE uitpakken"
    },
    "extractTo.accesskey": {
        "message": "u"
    },
    "extractTo.label": {
        "message": "AE bijlagen uitpakken"
    },
    "extractToBrowse.accesskey": {
        "message": "B"
    },
    "extractToBrowse_label": {
        "message": "Bladeren…"
    },
    "extractToDefault.accesskey": {
        "message": "s"
    },
    "extractToDefault_label": {
        "message": "Naar standaardmap"
    },
    "extractToFavoritefolders.accesskey": {
        "message": "F"
    },
    "extractToFavoritefolders_label": {
        "message": "Naar favoriete map"
    },
    "extractToMRUfolders.accesskey": {
        "message": "M"
    },
    "extractToMRUfolders_label": {
        "message": "Naar meest recent gebruikte map"
    },
    "extractToSuggestfolders.accesskey": {
        "message": "s"
    },
    "extractToSuggestfolders_label": {
        "message": "Naar gesuggereerde map…"
    },
    "extractWithCustomPattern.accesskey": {
        "message": "M"
    },
    "extractWithCustomPattern.label": {
        "message": "Met een aangepast bestandsnaampatroon"
    },
    "extractWithSubToBrowse.accesskey": {
        "message": "l"
    },
    "extractWithSubToBrowse.label": {
        "message": "Bladeren… (incl. submappen)"
    },
    "extractWithSubToDefault.accesskey": {
        "message": "t"
    },
    "extractWithSubToDefault.label": {
        "message": "Naar standaardmap (incl. submappen)"
    },
    "extractWithSubToFavoritefolders.accesskey": {
        "message": "v"
    },
    "extractWithSubToFavoritefolders.label": {
        "message": "Naar favoriete map (incl. submappen)"
    },
    "extractWithSubToMRUfolders.accesskey": {
        "message": "e"
    },
    "extractWithSubToMRUfolders.label": {
        "message": "Naar meest recent gebruikte map (incl. submappen)"
    },
    "extractWithSubToSuggestfolders.accesskey": {
        "message": "u"
    },
    "extractWithSubToSuggestfolders.label": {
        "message": "Naar gesuggereerde map 9incl. submappen)…"
    },
    "filenamepatterndialog.askalways.accesskey": {
        "message": "A"
    },
    "filenamepatterndialog.askalways.label": {
        "message": "Altijd naar bestandsnaampatroon vragen"
    },
    "filenamepatterndialog.checkbox.accesskey": {
        "message": "S"
    },
    "filenamepatterndialog.checkbox.label": {
        "message": "Patroon vanaf nu als standaard instellen"
    },
    "filenamepatterndialog.input.label": {
        "message": "Pas het bestandsnaampatroon van de bijlage aan:"
    },
    "filenamepatterndialog.title": {
        "message": "AttachementExtractor – Bestandsnaampatroon"
    },
    "filenamepatterndialog.tokenbutton.label": {
        "message": "Klik om een token toe te voegen"
    },
    "headerbutton_label": {
        "message": "AE uitpakken"
    },
    "headerbutton_tooltip": {
        "message": "Bijlagen uit dit bericht uitpakken"
    },
    "justDeleteAllAttachments.accesskey": {
        "message": "U"
    },
    "justDeleteAllAttachments.label": {
        "message": "Bijlagen gewoon verwijderen uit alle berichten in de map"
    },
    "justDeleteAttachments.accesskey": {
        "message": "j"
    },
    "justDeleteAttachments_label": {
        "message": "Bijlagen gewoon verwijderen uit geselecteerde berichten"
    },
    "progress.status.attachment.text": {
        "message": "Bijlagen"
    },
    "progress.status.file.text": {
        "message": "Voortgang"
    },
    "progress.status.message.text": {
        "message": "Berichten"
    },
    "progress.status1.text": {
        "message": "Uitpakken…"
    },
    "progress.status2.text": {
        "message": "Een ogenblik."
    },
    "progress.windowtitle": {
        "message": "AttachmentExtractor is aan de slag"
    },
    "settings.SeparatedByComma": {
        "message": "(kommagescheiden)"
    },
    "settings.SeparatedBySemicolon": {
        "message": "(puntkommagescheiden)"
    },
    "settings.abouttab.label": {
        "message": "Over"
    },
    "settings.advancedmoretab.label": {
        "message": "Meer"
    },
    "settings.advancedtab.label": {
        "message": "Geavanceerd"
    },
    "settings.after-delete.accesskey": {
        "message": "d"
    },
    "settings.after-delete.label": {
        "message": "Het bericht worden verwijderd?"
    },
    "settings.after-detach.accesskey": {
        "message": "W"
    },
    "settings.after-detach.confirm.accesskey": {
        "message": "z"
    },
    "settings.after-detach.confirm.label": {
        "message": "Verwijderen zonder bevestiging"
    },
    "settings.after-detach.label": {
        "message": "De bijlage uit het bericht worden verwijderd?"
    },
    "settings.after-read.accesskey": {
        "message": "z"
    },
    "settings.after-read.label": {
        "message": "Het bericht als gelezen worden gemarkeerd?"
    },
    "settings.after-savemessage.accesskey": {
        "message": "O"
    },
    "settings.after-savemessage.label": {
        "message": "Berichttekst in bestand opslaan (opmerking: identiek patroon voor normaal en automatisch uitpakken)."
    },
    "settings.afterextractpolicy.label": {
        "message": "Moet na het uitpakken van de bijlagen:"
    },
    "settings.autoextract.accesskey": {
        "message": "A"
    },
    "settings.autoextract.cleartriggertag.accesskey": {
        "message": "V"
    },
    "settings.autoextract.cleartriggertag.label": {
        "message": "Markering van berichten worden verwijderd?"
    },
    "settings.autoextract.label": {
        "message": "Bijlagen automatisch uitpakken bij ontvangen van een bericht"
    },
    "settings.autoextract.onattachmentsonly.accesskey": {
        "message": "s"
    },
    "settings.autoextract.onattachmentsonly.label": {
        "message": "Automatisch uitpakken alleen starten bij berichten die bijlagen lijken te bevatten"
    },
    "settings.autoextract.ontriggeronly.accesskey": {
        "message": "O"
    },
    "settings.autoextract.ontriggeronly.label": {
        "message": "Alleen automatisch uitpakken wanneer het nieuwe bericht is gemarkeerd met een overeenstemmende markering."
    },
    "settings.autoextract.savefolder.browsebutton": {
        "message": "Bladeren…"
    },
    "settings.autoextract.savefolder.label": {
        "message": "Pad voor opslaan van bijlagen:"
    },
    "settings.autoextract.triggertag.label": {
        "message": "Berichten uitpakken wanneer de markering overeenkomt met:"
    },
    "settings.autoextract.waitforall.accesskey": {
        "message": "W"
    },
    "settings.autoextract.waitforall.label": {
        "message": "Met automatisch uitpakken wachten totdat alle berichten zijn gedownload."
    },
    "settings.autotab.label": {
        "message": "Automatisch uitpakken"
    },
    "settings.debug.accesskey": {
        "message": "F"
    },
    "settings.debug.caption": {
        "message": "Foutopsporing"
    },
    "settings.debug.label": {
        "message": "Foutopsporingsmodus inschakelen bij herstart. Berichten worden gelogd naar de Console en weggeschreven naar ‘aec_debug.txt’ in uw profielmap."
    },
    "settings.doextract.accesskey": {
        "message": "j"
    },
    "settings.doextract.label": {
        "message": "De bijlagen uitpakken."
    },
    "settings.extract.caption": {
        "message": "Bestand opslaan"
    },
    "settings.extract.minimumsize.caption": {
        "message": "Controle minimumgrootte"
    },
    "settings.extract.minsize_1024_bytes_SI-Unit_KiB-end.label": {
        "message": "KiB"
    },
    "settings.extract.minsize_1024_bytes_SI-Unit_KiB-start.label": {
        "message": "Bijlagen alleen opslaan als ze groter zijn dan:"
    },
    "settings.favoritefolder.addbutton.label": {
        "message": "Toevoegen…"
    },
    "settings.favoritefolder.clearbutton.label": {
        "message": "Wissen"
    },
    "settings.favoritefolder.description": {
        "message": "Met de Favoriete mappen kunt u een snellere selectie instellen."
    },
    "settings.favoritefolder.dialogtitle": {
        "message": "Favoriete mappen"
    },
    "settings.favoritefolder.parents.label": {
        "message": "De volgende mappen worden weergegeven als favorieten:"
    },
    "settings.filenamepattern.askalways.accesskey": {
        "message": "A"
    },
    "settings.filenamepattern.askalways.label": {
        "message": "Altijd om een bestandsnaampatroon vragen"
    },
    "settings.filenamepattern.explanation.attachment": {
        "message": "Een bijlage genaamd (#namepart##extpart#):"
    },
    "settings.filenamepattern.explanation.caption": {
        "message": "Gebaseerd op een e-mailbericht dat wordt ontvangen met de volgende eigenschappen:"
    },
    "settings.filenamepattern.explanation.fromauthor2": {
        "message": "Van schrijver (#from# &lt;#fromemail#&gt;)"
    },
    "settings.filenamepattern.explanation.mailfolder": {
        "message": "In postvak (#folder#):"
    },
    "settings.filenamepattern.explanation.recieveddate": {
        "message": "Ontvangen op (#date#):"
    },
    "settings.filenamepattern.explanation.recieveddateformatted": {
        "message": "Datum/Tijd na toepassen patroon:"
    },
    "settings.filenamepattern.explanation.withcleansubject": {
        "message": "Onderwerp na verwijderen van ‘Betr:’ enz.:"
    },
    "settings.filenamepattern.explanation.withsubject": {
        "message": "Een e-mailonderwerp (#subject#) van:"
    },
    "settings.filenamepattern.explanation.wouldgenerate": {
        "message": "Zou eerst aanmaken:"
    },
    "settings.filenamepattern.explanation.wouldgeneratethen": {
        "message": "Gevolgd door:"
    },
    "settings.filenamepattern.label": {
        "message": "Gebruikt patroon voor het aanmaken van bestandsnamen:"
    },
    "settings.filenamepatterncleansubjectq.accesskey": {
        "message": "U"
    },
    "settings.filenamepatterncleansubjectq.label": {
        "message": "Gebruiken?"
    },
    "settings.filenamepatterncount.label": {
        "message": "Patroon gebruikt voor dubbele bestandsnamen (#count#):"
    },
    "settings.filenamepatterndate.dialogtitle": {
        "message": "#Date#-patrooninstelling"
    },
    "settings.filenamepatterndate.editbutton.label": {
        "message": "Datumpatroon bewerken"
    },
    "settings.filenamepatterndate.homepage.label": {
        "message": "Referentie voor opmaakcodes voor #date#:"
    },
    "settings.filenamepatterndate.label": {
        "message": "Gebruikt patroon voor data (#date#):"
    },
    "settings.filenamepatterngroup.label": {
        "message": "Bestandsnaampatroon generatie:"
    },
    "settings.filenametab.label": {
        "message": "Bestandsnamen"
    },
    "settings.folderstab.label": {
        "message": "Mappen"
    },
    "settings.generaltab.label": {
        "message": "Algemeen"
    },
    "settings.homepage.label": {
        "message": "AttachmentExtractor-startpagina en beschrijving van mogelijkheden:"
    },
    "settings.includeexcludepolicy2-false.accesskey": {
        "message": "B"
    },
    "settings.includeexcludepolicy2-false.label": {
        "message": "Alle bestanden uitpakken behalve wanneer de bestandsnaam het volgende bevat:"
    },
    "settings.includeexcludepolicy2-true.accesskey": {
        "message": "W"
    },
    "settings.includeexcludepolicy2-true.label": {
        "message": "Alleen die bestanden uitpakken waarvan de bestandsnaam het volgende bevat:"
    },
    "settings.includeexcludepolicy2.label": {
        "message": "Bestandsnaam-filterbeleid:"
    },
    "settings.inlinepolicy.accesskey": {
        "message": "I"
    },
    "settings.inlinepolicy.label": {
        "message": "Meegeleverde (‘inline’) afbeeldingen ook uitpakken"
    },
    "settings.noextract.accesskey": {
        "message": "U"
    },
    "settings.noextract.label": {
        "message": "Opslaan van bijlagen uitschakelen"
    },
    "settings.notifywhendone.accesskey": {
        "message": "B"
    },
    "settings.notifywhendone.label": {
        "message": "Bericht geven wanneer alle bijlagen zijn uitgepakt"
    },
    "settings.overwrite-ask.accesskey": {
        "message": "V"
    },
    "settings.overwrite-ask.label": {
        "message": "Elke keer vragen"
    },
    "settings.overwrite-ignore.accesskey": {
        "message": "H"
    },
    "settings.overwrite-ignore.label": {
        "message": "Bestaand bestand altijd behouden, bijlage niet uitpakken"
    },
    "settings.overwrite-rename.accesskey": {
        "message": "N"
    },
    "settings.overwrite-rename.label": {
        "message": "Een nieuwe naam voor de bijlage maken, zodat beide bestanden behouden blijven"
    },
    "settings.overwrite-replace.accesskey": {
        "message": "R"
    },
    "settings.overwrite-replace.label": {
        "message": "Bestaand bestand altijd overschrijven door nieuwe bijlage"
    },
    "settings.overwritepolicy.label": {
        "message": "Wat moet er gebeuren als een bestand wordt aangetroffen dat dezelfde naam heeft als de bijlage?"
    },
    "settings.posttab.label": {
        "message": "Na uitpakken"
    },
    "settings.progressdialogtext.accesskey": {
        "message": "i"
    },
    "settings.progressdialogtext.label": {
        "message": "Berichtonderwerpen en bijlagetitels in de voortgangsdialoog weergeven."
    },
    "settings.protocolltab.label": {
        "message": "Logs"
    },
    "settings.queuerequests.caption": {
        "message": "Uitpakwachtrij"
    },
    "settings.queuerequests.disabled.accesskey": {
        "message": "S"
    },
    "settings.queuerequests.disabled.label": {
        "message": "AttachmentExtractor direct starten wanneer om uitpakken wordt gevraagd."
    },
    "settings.queuerequests.enabled.accesskey": {
        "message": "A"
    },
    "settings.queuerequests.enabled.label": {
        "message": "Uitpakverzoeken in de wachtrij plaatsen wanneer AE al loopt."
    },
    "settings.reportgen.accesskey": {
        "message": "A"
    },
    "settings.reportgen.button.label": {
        "message": "Instellingen Rapportgenerator…"
    },
    "settings.reportgen.caption": {
        "message": "HTML rapportgenerator"
    },
    "settings.reportgen.cssfile.caption": {
        "message": "Voor rapport te gebruiken stylesheet:"
    },
    "settings.reportgen.embedcss.accesskey": {
        "message": "O"
    },
    "settings.reportgen.embedcss.label": {
        "message": "Stijlinformatie in het rapport opnemen in plaats van koppelen aan de stylesheet."
    },
    "settings.reportgen.label": {
        "message": "Een rapport aanmaken na elke keer dat AttachmentExtractor heeft gedraaid."
    },
    "settings.reportgen.reportname2.label": {
        "message": "Bestandsnaam (of absoluut pad) van het rapport:"
    },
    "settings.reportgen.thumbnail.accesskey": {
        "message": "i"
    },
    "settings.reportgen.thumbnail.label": {
        "message": "Waar mogelijk afbeeldingsminiaturen gebruiken voor bijlagen."
    },
    "settings.reporttab.label": {
        "message": "RapportGen"
    },
    "settings.requiresrestart.label": {
        "message": "(TB dient herstart te worden om de wijzigingen door te voeren)"
    },
    "settings.returnreceipts.button.label": {
        "message": "Ontvangstbevestigingen…"
    },
    "settings.returnreceipts.dialogtitle": {
        "message": "Ontvangstbevestigingen"
    },
    "settings.returnreceipts.enabled.accesskey": {
        "message": "S"
    },
    "settings.returnreceipts.enabled.label": {
        "message": "Ontvangstbevestigingen versturen wanneer er om wordt gevraagd"
    },
    "settings.returnreceipts.label": {
        "message": "AttachmentExtractor kan automatisch ontvangstbevestigingen versturen wanneer een bericht als gelezen wordt gemarkeerd"
    },
    "settings.returnreceipts.override.caption": {
        "message": "Aanvraag ontvangstbevestiging:"
    },
    "settings.returnreceipts.override.disabled.accesskey": {
        "message": "T"
    },
    "settings.returnreceipts.override.disabled.label": {
        "message": "Instellingen in Thunderbird voor ontvangstbevestigingen volgen"
    },
    "settings.returnreceipts.override.enabled.accesskey": {
        "message": "O"
    },
    "settings.returnreceipts.override.enabled.label": {
        "message": "‘Mij vragen’-instelling negeren en ontvangstbevestigingen versturen met vraag"
    },
    "settings.savefolder.browsebutton": {
        "message": "Bladeren…"
    },
    "settings.savefolder.label": {
        "message": "Standaardpad voor wegschrijven:"
    },
    "settings.savefolders.caption": {
        "message": "Waar dienen de bijlagen te worden opgeslagen?"
    },
    "settings.savepathmru.accesskey": {
        "message": "M"
    },
    "settings.savepathmru.caption": {
        "message": "Meest recent gebruikte mappen"
    },
    "settings.savepathmru.clearbutton.label": {
        "message": "Nu wissen"
    },
    "settings.savepathmru.count.label1": {
        "message": "Laatste"
    },
    "settings.savepathmru.count.label2": {
        "message": "mappen opslaan."
    },
    "settings.savepathmru.label": {
        "message": "Lijst met meest recent gebruikte mappen inschakelen."
    },
    "settings.setdatetoemail.accesskey": {
        "message": "s"
    },
    "settings.setdatetoemail.label": {
        "message": "Datum/tijdstip van bestandswijziging van de bijlage instellen op datum/tijdstip van ontvangst van het bericht."
    },
    "settings.showprogressdialog.accesskey": {
        "message": "d"
    },
    "settings.showprogressdialog.label": {
        "message": "Voortgangsdialoog weergeven tijdens extractie."
    },
    "settings.skipidentical.accesskey": {
        "message": "S"
    },
    "settings.skipidentical.label": {
        "message": "Bestanden van identieke omvang overslaan"
    },
    "settings.suggestfolder.addbutton.label": {
        "message": "Toevoegen…"
    },
    "settings.suggestfolder.clearbutton.label": {
        "message": "Wissen"
    },
    "settings.suggestfolder.description": {
        "message": "Een map waarnaar kan worden uitgepakt kan worden gesuggereerd op basis van de onderwerpregels in de door u geselecteerde berichten."
    },
    "settings.suggestfolder.dialogtitle": {
        "message": "Gesuggereerde mappen"
    },
    "settings.suggestfolder.disregardduplicates.accesskey": {
        "message": "N"
    },
    "settings.suggestfolder.disregardduplicates.label": {
        "message": "Dubbele trefwoorden negeren bij ordenen gesuggereerde mappen?"
    },
    "settings.suggestfolder.excludedkeywords.label": {
        "message": "Uit te sluiten trefwoorden: (gescheiden door komma’s)"
    },
    "settings.suggestfolder.parents.label": {
        "message": "Mappen met mogelijke submappen om naar uit te pakken:"
    },
    "settings.windowtitle": {
        "message": "AttachmentExtractor-instellingen"
    },
    "suggestedFolderDialog.acceptbutton": {
        "message": "Geselecteerde map gebruiken"
    },
    "suggestedFolderDialog.label": {
        "message": "Gesuggereerde mappen gebaseerd op onderwerpregel(s) van geselecteerd(e) bericht(en):"
    },
    "suggestedFolderDialog.title": {
        "message": "AttachmentExtractor - Gesuggereerde mappen:"
    },
    "toolbarbutton_label": {
        "message": "AE uitpakken"
    },
    "toolbarbutton_tooltip": {
        "message": "Bijlagen uit geselecteerde berichten uitpakken"
    }
}