{
    "CSSFileFilterDescription": {
        "message": "Feuilles de style CSS"
    },
    "CSSFilePickerDialogTitle": {
        "message": "Choisir une feuille de style à utiliser"
    },
    "ConfirmAutoDetachSettingDialogMessage2": {
        "message": "Enabling detach/delete attachments will remove attachments from all incoming emails that fit the criteria you specified (potentially all emails), based on selected options maybe without further confirmation. \\n\\nIf there is an error it may result in either losing the attachment or the email contents, or both. \\n\\nDo not enable this if you can't risk losing attachments and your incoming emails. \\n\\nUse at your own risk."
    },
    "ConfirmDetachDialogMessage2": {
        "message": "You have chosen to detach attachments with AttachmentExtractor. There will be no further confirmation messages after this and every attachment will be deleted from the selected emails. Once deleted this cannot be undone. \\n\\nStill Proceed?"
    },
    "ConfirmDetachDialogTitle2": {
        "message": "Confirm Detaching"
    },
    "ConfirmDetachSettingDialogMessage2": {
        "message": "Please be aware that this method may not work properly in all cases. \\n\\nIf there is an error it may result in either losing the attachments or the email contents, or both.  If this happens there is no easy way of recovering what's been lost so it is inadvisable to use it with important emails. Create Backups before using this feature. \\n\\nUse at your own risk."
    },
    "ConfirmDetachSettingDialogTitle2": {
        "message": "Warning!"
    },
    "DateTime": {
        "message": "Date/Heure"
    },
    "DeleteLinkedFileMessage": {
        "message": "Précédemment, vous avez utilisé AttachmentExtractor afin d'extraire des pièces-jointes de ce message. Voulez-vous supprimer ceux de votre ordinateur ?"
    },
    "DeleteLinkedFileTitle": {
        "message": "AttachmentExtractor : voulez-vous effacer le fichier extrait ?"
    },
    "DoneExtractingDialogMessage": {
        "message": "Extraction terminée !"
    },
    "DoneExtractingDialogNotifyAgain": {
        "message": "M'avertir également la prochaine fois."
    },
    "DoneExtractingDialogTitle": {
        "message": "Terminé"
    },
    "ExecutableFilePickerDialogTitle": {
        "message": "Choisir l'application à utiliser"
    },
    "ExtractionEnded": {
        "message": "Fin de l'application [date/heure : $P1$]",
        "placeholders": {
            "P1": {
                "content": "$1"
            }
        }
    },
    "ExtractionStarted": {
        "message": "Démarrage de l'application [date et heure : $P1$]",
        "placeholders": {
            "P1": {
                "content": "$1"
            }
        }
    },
    "FileNamePatternDialogAskAlways": {
        "message": "Ask always for filename pattern"
    },
    "FileNamePatternDialogMessage": {
        "message": "Définir le schéma de nom de fichier :"
    },
    "FileNamePatternDialogQuestion": {
        "message": "Définir ce schéma par défaut"
    },
    "FileNamePatternDialogTitle": {
        "message": "Modèle du nom de la pièces jointe"
    },
    "FileNamePatternFixMessage": {
        "message": "Le nom de fichier ou modèle que vous avez entré est invalide et pourrait rendre AttachmentExtractor inutilisable.\\nChanger en :\\n %1$s ?"
    },
    "FileNamePatternFixTitle": {
        "message": "Correction suggérée :"
    },
    "FolderPickerDialogTitle": {
        "message": "Sélectionner le dossier à utiliser"
    },
    "FolderPickerDialogTitleDefaultAutoextractPath": {
        "message": "Auto-Extract Save Path not defined - Select folder to use"
    },
    "FolderPickerDialogTitleDefaultSavePath": {
        "message": "Default Save Path not defined - Select folder to use"
    },
    "From": {
        "message": "De"
    },
    "GenericErrorDialog": {
        "message": "Oups !"
    },
    "GenericErrorMessage3": {
        "message": "Something has gone wrong with AttachmentExtractor.  If this happens regularly please log a bug on the bugtracker on https://gitlab.com/ThunderbirdMailDE/attachment-extractor-continued/issues with the error details shown in Thunderbird's Error Console."
    },
    "Heading": {
        "message": "Rapport d'AttachmentExtractor"
    },
    "OverwriteDialogDontAskAgain": {
        "message": "Toujours effectuer cette action."
    },
    "OverwriteDialogIgnore": {
        "message": "Passer cette pièce-jointe"
    },
    "OverwriteDialogMessage": {
        "message": "Le ficher % existe déjà.  Voulez-vous :"
    },
    "OverwriteDialogRename": {
        "message": "Générer un nouveau nom de fichier"
    },
    "OverwriteDialogReplace": {
        "message": "Écraser le fichier existant"
    },
    "OverwriteDialogTitle": {
        "message": "Le fichier existe déjà !"
    },
    "ProgressDialogProgressOf": {
        "message": "[%1$s] sur [%2$s]"
    },
    "ProgressDialogProgressText": {
        "message": "Message [%1$s] sur [%2$s]"
    },
    "ProgressDialogProgressText2": {
        "message": "Pièce jointe [%1$s] sur [%2$s]"
    },
    "ProgressDialogProgressTextFile": {
        "message": "%1$s KiB sur %2$s KiB"
    },
    "ReportTitle": {
        "message": "Rapport ReportGen d'AttachmentExtractor"
    },
    "StatusTextAttachment": {
        "message": "Extraction : pièce jointe [%1$s] sur [%2$s]"
    },
    "StatusTextEnded": {
        "message": "Extraction terminée"
    },
    "StatusTextStarting": {
        "message": "Démarrage de l'extraction avec les pièce(s) jointe(s) sélectionnée(s)"
    },
    "StatusTextTidying": {
        "message": "Extraction : terminé pièce jointe %1$s, arrêt…"
    },
    "Subject": {
        "message": "Courriel"
    },
    "To": {
        "message": "à"
    },
    "WarningDoNotShowAgain": {
        "message": "Do not show this warning again."
    },
    "WarningJustDelete": {
        "message": "This will delete the file attachments from the selected messages without further confirmation. Once deleted this cannot be undone. \\n\\nThe file attachments will NOT be saved! \\n\\nDo you really want this?"
    },
    "WarningSaveThenDelete": {
        "message": "File attachments will be saved and then deleted from the selected messages without further confirmation. Once deleted this cannot be undone. \\n\\nDo you really want this?"
    },
    "WarningTitle": {
        "message": "Warning"
    },
    "browse.accesskey": {
        "message": "B"
    },
    "browse.label": {
        "message": "Browse…"
    },
    "extensionDescription": {
        "message": "Extracts all attachments from selected messages and then can delete, detach and more"
    },
    "extensionName": {
        "message": "AttachmentExtractor Continued"
    },
    "extractFoldersTo_label": {
        "message": "AE Extract from Messages in Folders"
    },
    "extractMessagesTo_label": {
        "message": "AE Extract from Messages"
    },
    "extractMultipleAttTo.label": {
        "message": "AE Extract all"
    },
    "extractSingleAttTo.label": {
        "message": "AE Extract"
    },
    "extractTo.accesskey": {
        "message": "x"
    },
    "extractTo.label": {
        "message": "AE Extract Attachments"
    },
    "extractToBrowse.accesskey": {
        "message": "B"
    },
    "extractToBrowse_label": {
        "message": "Browse…"
    },
    "extractToDefault.accesskey": {
        "message": "D"
    },
    "extractToDefault_label": {
        "message": "To Default Folder"
    },
    "extractToFavoritefolders.accesskey": {
        "message": "F"
    },
    "extractToFavoritefolders_label": {
        "message": "To Favorite Folder"
    },
    "extractToMRUfolders.accesskey": {
        "message": "M"
    },
    "extractToMRUfolders_label": {
        "message": "To Most Recently Used Folder"
    },
    "extractToSuggestfolders.accesskey": {
        "message": "S"
    },
    "extractToSuggestfolders_label": {
        "message": "To Suggested Folder…"
    },
    "extractWithCustomPattern.accesskey": {
        "message": "W"
    },
    "extractWithCustomPattern.label": {
        "message": "With a Custom Filename Pattern"
    },
    "extractWithSubToBrowse.accesskey": {
        "message": "r"
    },
    "extractWithSubToBrowse.label": {
        "message": "Browse… (inc. Subfolders)"
    },
    "extractWithSubToDefault.accesskey": {
        "message": "e"
    },
    "extractWithSubToDefault.label": {
        "message": "To Default Folder (inc. Subfolders)"
    },
    "extractWithSubToFavoritefolders.accesskey": {
        "message": "a"
    },
    "extractWithSubToFavoritefolders.label": {
        "message": "To Favorite Folder (inc. Subfolders)"
    },
    "extractWithSubToMRUfolders.accesskey": {
        "message": "o"
    },
    "extractWithSubToMRUfolders.label": {
        "message": "Most Recently Used Folder (inc. Subfolders)"
    },
    "extractWithSubToSuggestfolders.accesskey": {
        "message": "u"
    },
    "extractWithSubToSuggestfolders.label": {
        "message": "To Suggested Folder (inc. Subfolders)…"
    },
    "filenamepatterndialog.askalways.accesskey": {
        "message": "A"
    },
    "filenamepatterndialog.askalways.label": {
        "message": "Ask always for filename pattern"
    },
    "filenamepatterndialog.checkbox.accesskey": {
        "message": "S"
    },
    "filenamepatterndialog.checkbox.label": {
        "message": "Définir comme modèle par défaut"
    },
    "filenamepatterndialog.input.label": {
        "message": "Modifier le modèle de nom de fichier joint :"
    },
    "filenamepatterndialog.title": {
        "message": "Modèle d&apos;entrée de nom de fichier"
    },
    "filenamepatterndialog.tokenbutton.label": {
        "message": "Cliquez pour ajouter un jeton"
    },
    "headerbutton_label": {
        "message": "Extraire"
    },
    "headerbutton_tooltip": {
        "message": "Extraire les pièces jointes des messages sélectionnés"
    },
    "justDeleteAllAttachments.accesskey": {
        "message": "U"
    },
    "justDeleteAllAttachments.label": {
        "message": "Supprimer uniquement les pièces jointes de tous les messages du dossier"
    },
    "justDeleteAttachments.accesskey": {
        "message": "J"
    },
    "justDeleteAttachments_label": {
        "message": "Supprimer uniquement les pièces jointes des messages sélectionnés"
    },
    "progress.status.attachment.text": {
        "message": "Pièces jointes"
    },
    "progress.status.file.text": {
        "message": "Progression"
    },
    "progress.status.message.text": {
        "message": "Messages"
    },
    "progress.status1.text": {
        "message": "Extraction en cours…"
    },
    "progress.status2.text": {
        "message": "Veuillez patienter…"
    },
    "progress.windowtitle": {
        "message": "Extraction des pièces jointes"
    },
    "settings.SeparatedByComma": {
        "message": "(Comma separated)"
    },
    "settings.SeparatedBySemicolon": {
        "message": "(Semicolon separated)"
    },
    "settings.abouttab.label": {
        "message": "À propos"
    },
    "settings.advancedmoretab.label": {
        "message": "Plus"
    },
    "settings.advancedtab.label": {
        "message": "Avancé"
    },
    "settings.after-delete.accesskey": {
        "message": "S"
    },
    "settings.after-delete.label": {
        "message": "Supprimer le message"
    },
    "settings.after-detach.accesskey": {
        "message": "P"
    },
    "settings.after-detach.confirm.accesskey": {
        "message": "w"
    },
    "settings.after-detach.confirm.label": {
        "message": "Delete without confirmation"
    },
    "settings.after-detach.label": {
        "message": "Supprimer les pièces jointes du message"
    },
    "settings.after-read.accesskey": {
        "message": "M"
    },
    "settings.after-read.label": {
        "message": "Marquer le message comme lu"
    },
    "settings.after-savemessage.accesskey": {
        "message": "S"
    },
    "settings.after-savemessage.label": {
        "message": "Sauver le texte du message dans un fichier. (note : même modèle pour normal et extraction automatique)"
    },
    "settings.afterextractpolicy.label": {
        "message": "Après l&apos;extraction des pièces jointes :"
    },
    "settings.autoextract.accesskey": {
        "message": "A"
    },
    "settings.autoextract.cleartriggertag.accesskey": {
        "message": "E"
    },
    "settings.autoextract.cleartriggertag.label": {
        "message": "Enlever les étiquettes des messages ?"
    },
    "settings.autoextract.label": {
        "message": "Extraire automatiquement les pièces jointes à la réception des messages"
    },
    "settings.autoextract.onattachmentsonly.accesskey": {
        "message": "O"
    },
    "settings.autoextract.onattachmentsonly.label": {
        "message": "Démarrer l&apos;extraction automatique seulement pour les messages ayant des pièces jointes"
    },
    "settings.autoextract.ontriggeronly.accesskey": {
        "message": "O"
    },
    "settings.autoextract.ontriggeronly.label": {
        "message": "Extraire automatiquement seulement si le message a été étiqueté avec une étiquette correspondante."
    },
    "settings.autoextract.savefolder.browsebutton": {
        "message": "Parcourir…"
    },
    "settings.autoextract.savefolder.label": {
        "message": "Sauvegarder les emplacements pour les pièces jointes"
    },
    "settings.autoextract.triggertag.label": {
        "message": "Extraire les messages si l&apos;étiquette correspond à :"
    },
    "settings.autoextract.waitforall.accesskey": {
        "message": "A"
    },
    "settings.autoextract.waitforall.label": {
        "message": "Attendre que les messages soient téléchargés avant de démarrer l&apos;extraction automatique."
    },
    "settings.autotab.label": {
        "message": "Extraction automatique"
    },
    "settings.debug.accesskey": {
        "message": "D"
    },
    "settings.debug.caption": {
        "message": "Débogage"
    },
    "settings.debug.label": {
        "message": "Activer le mode de débogage au redémarrage. Les messages sont enregistrés dans la console et écrits dans un fichier &apos;aec_debug.txt&apos; dans votre répertoire de profil"
    },
    "settings.doextract.accesskey": {
        "message": "x"
    },
    "settings.doextract.label": {
        "message": "Extract the Attachments."
    },
    "settings.extract.caption": {
        "message": "Sauvegarde des pièces jointes"
    },
    "settings.extract.minimumsize.caption": {
        "message": "Vérification de taille minimale"
    },
    "settings.extract.minsize_1024_bytes_SI-Unit_KiB-end.label": {
        "message": "KiB"
    },
    "settings.extract.minsize_1024_bytes_SI-Unit_KiB-start.label": {
        "message": "Sauvegarder les pièces jointes seulement si plus grandes que :"
    },
    "settings.favoritefolder.addbutton.label": {
        "message": "Ajouter…"
    },
    "settings.favoritefolder.clearbutton.label": {
        "message": "Effacer"
    },
    "settings.favoritefolder.description": {
        "message": "The Favorite Folders allow for a given, faster selection."
    },
    "settings.favoritefolder.dialogtitle": {
        "message": "Favorite Folders"
    },
    "settings.favoritefolder.parents.label": {
        "message": "The following folders are displayed as favorites:"
    },
    "settings.filenamepattern.askalways.accesskey": {
        "message": "A"
    },
    "settings.filenamepattern.askalways.label": {
        "message": "Ask always for filename pattern"
    },
    "settings.filenamepattern.explanation.attachment": {
        "message": "Une pièce jointe nommée (#namepart##extpart#) :"
    },
    "settings.filenamepattern.explanation.caption": {
        "message": "Basé sur un email reçu avec les propriétés suivantes :"
    },
    "settings.filenamepattern.explanation.fromauthor2": {
        "message": "De l&apos;auteur (#from# &lt;#fromemail#&gt;) :"
    },
    "settings.filenamepattern.explanation.mailfolder": {
        "message": "Dans le dossier email (#folder#) :"
    },
    "settings.filenamepattern.explanation.recieveddate": {
        "message": "Reçu le (#date#) :"
    },
    "settings.filenamepattern.explanation.recieveddateformatted": {
        "message": "Date/Heure après application du modèle :"
    },
    "settings.filenamepattern.explanation.withcleansubject": {
        "message": "Sujet, après suppression de &quot;re:&quot;, etc :"
    },
    "settings.filenamepattern.explanation.withsubject": {
        "message": "Sujet du courriel (#subject#) :"
    },
    "settings.filenamepattern.explanation.wouldgenerate": {
        "message": "Générerait en premier :"
    },
    "settings.filenamepattern.explanation.wouldgeneratethen": {
        "message": "Suivi de :"
    },
    "settings.filenamepattern.label": {
        "message": "Modèle utilisé pour générer les noms de fichiers :"
    },
    "settings.filenamepatterncleansubjectq.accesskey": {
        "message": "U"
    },
    "settings.filenamepatterncleansubjectq.label": {
        "message": "Utiliser ?"
    },
    "settings.filenamepatterncount.label": {
        "message": "Modèle utilisé lorsqu&apos;un nom de fichier est dupliqué (#count#) :"
    },
    "settings.filenamepatterndate.dialogtitle": {
        "message": "Configuration du format de #Date#"
    },
    "settings.filenamepatterndate.editbutton.label": {
        "message": "Édition du format de la date"
    },
    "settings.filenamepatterndate.homepage.label": {
        "message": "Référence des codes de formatage pour #date# :"
    },
    "settings.filenamepatterndate.label": {
        "message": "Modèle utilisé pour les dates (#date#) :"
    },
    "settings.filenamepatterngroup.label": {
        "message": "Modèle de création de noms de fichier :"
    },
    "settings.filenametab.label": {
        "message": "Noms de fichiers"
    },
    "settings.folderstab.label": {
        "message": "Folders"
    },
    "settings.generaltab.label": {
        "message": "Général"
    },
    "settings.homepage.label": {
        "message": "Page web et description des fonctionnalités d&apos;AttachmentExtractor"
    },
    "settings.includeexcludepolicy2-false.accesskey": {
        "message": "x"
    },
    "settings.includeexcludepolicy2-false.label": {
        "message": "Extraire tous les fichiers, sauf les extensions :"
    },
    "settings.includeexcludepolicy2-true.accesskey": {
        "message": "U"
    },
    "settings.includeexcludepolicy2-true.label": {
        "message": "Extraire uniquement les fichiers avec les extensions :"
    },
    "settings.includeexcludepolicy2.label": {
        "message": "Filtre des noms de fichier :"
    },
    "settings.inlinepolicy.accesskey": {
        "message": "I"
    },
    "settings.inlinepolicy.label": {
        "message": "Extraire aussi les images embarquées («au fil du message»)."
    },
    "settings.noextract.accesskey": {
        "message": "D"
    },
    "settings.noextract.label": {
        "message": "Désactiver la sauvegarde des pièces jointes"
    },
    "settings.notifywhendone.accesskey": {
        "message": "A"
    },
    "settings.notifywhendone.label": {
        "message": "M&apos;avertir quand toutes les pièces jointes ont été extraites."
    },
    "settings.overwrite-ask.accesskey": {
        "message": "D"
    },
    "settings.overwrite-ask.label": {
        "message": "Demander à chaque fois"
    },
    "settings.overwrite-ignore.accesskey": {
        "message": "G"
    },
    "settings.overwrite-ignore.label": {
        "message": "Toujours garder les fichiers existants, ne pas extraire la pièce jointe."
    },
    "settings.overwrite-rename.accesskey": {
        "message": "R"
    },
    "settings.overwrite-rename.label": {
        "message": "Renommer la pièce jointe, afin de les garder tous."
    },
    "settings.overwrite-replace.accesskey": {
        "message": "R"
    },
    "settings.overwrite-replace.label": {
        "message": "Toujours remplacer un fichier existant par la nouvelle pièce jointe."
    },
    "settings.overwritepolicy.label": {
        "message": "Que devrait-il se passer si un fichier déjà existant porte le même nom que la pièce jointe ?"
    },
    "settings.posttab.label": {
        "message": "Après l&apos;extraction"
    },
    "settings.progressdialogtext.accesskey": {
        "message": "B"
    },
    "settings.progressdialogtext.label": {
        "message": "Afficher les sujets et le nom des pièces jointes pendant la barre de progression."
    },
    "settings.protocolltab.label": {
        "message": "Logs"
    },
    "settings.queuerequests.caption": {
        "message": "Queue des extractions"
    },
    "settings.queuerequests.disabled.accesskey": {
        "message": "I"
    },
    "settings.queuerequests.disabled.label": {
        "message": "Démarrer AttachmentExtractor immédiatement à chaque demande d&apos;extraction"
    },
    "settings.queuerequests.enabled.accesskey": {
        "message": "A"
    },
    "settings.queuerequests.enabled.label": {
        "message": "Attendre et ajouter à la queue toute extraction demandée alors que AttachmentExtractor est déjà en cours d&apos;exécution."
    },
    "settings.reportgen.accesskey": {
        "message": "G"
    },
    "settings.reportgen.button.label": {
        "message": "Paramètres du générateur de rapports"
    },
    "settings.reportgen.caption": {
        "message": "Générateur de rapport HTML"
    },
    "settings.reportgen.cssfile.caption": {
        "message": "Feuille de style à utiliser pour le rapport :"
    },
    "settings.reportgen.embedcss.accesskey": {
        "message": "N"
    },
    "settings.reportgen.embedcss.label": {
        "message": "Inclure les informations de style dans le rapport, plutôt que de lier à la feuille de style."
    },
    "settings.reportgen.label": {
        "message": "Générer un rapport chaque fois qu&apos;AttachmentExtractor est exécuté."
    },
    "settings.reportgen.reportname2.label": {
        "message": "Nom de fichier (ou chemin complet) du rapport :"
    },
    "settings.reportgen.thumbnail.accesskey": {
        "message": "I"
    },
    "settings.reportgen.thumbnail.label": {
        "message": "Utiliser une image miniature pour les pièces jointes lorsque c&apos;est possible."
    },
    "settings.reporttab.label": {
        "message": "Rapport"
    },
    "settings.requiresrestart.label": {
        "message": "(redémarrage de Thunderbird nécessaire)"
    },
    "settings.returnreceipts.button.label": {
        "message": "Accepter l&apos;accusé de réception…"
    },
    "settings.returnreceipts.dialogtitle": {
        "message": "Permet de d&apos;accepter les accusés de réception."
    },
    "settings.returnreceipts.enabled.accesskey": {
        "message": "S"
    },
    "settings.returnreceipts.enabled.label": {
        "message": "Envoyer un accusé de réception si demandé"
    },
    "settings.returnreceipts.label": {
        "message": "AttachmentExtractor peut envoyer des accusés de réception automatiquement lorsqu&apos;un message est marqué comme Lu"
    },
    "settings.returnreceipts.override.caption": {
        "message": "Demandes d&apos;accusés de réception :"
    },
    "settings.returnreceipts.override.disabled.accesskey": {
        "message": "A"
    },
    "settings.returnreceipts.override.disabled.label": {
        "message": "Préférences des accusés de réception de Thunderbird."
    },
    "settings.returnreceipts.override.enabled.accesskey": {
        "message": "O"
    },
    "settings.returnreceipts.override.enabled.label": {
        "message": "Surpasser l&apos;option &quot;me demander&quot; et envoyer les accusés de réception en demandant"
    },
    "settings.savefolder.browsebutton": {
        "message": "Parcourir…"
    },
    "settings.savefolder.label": {
        "message": "Dossier par défaut :"
    },
    "settings.savefolders.caption": {
        "message": "Où sauver les pièces jointes ?"
    },
    "settings.savepathmru.accesskey": {
        "message": "R"
    },
    "settings.savepathmru.caption": {
        "message": "Dossiers récemment utilisés"
    },
    "settings.savepathmru.clearbutton.label": {
        "message": "Vider maintenant"
    },
    "settings.savepathmru.count.label1": {
        "message": "Garder les"
    },
    "settings.savepathmru.count.label2": {
        "message": "derniers dossiers"
    },
    "settings.savepathmru.label": {
        "message": "Activer une liste des dossiers récemment utilisés"
    },
    "settings.setdatetoemail.accesskey": {
        "message": "D"
    },
    "settings.setdatetoemail.label": {
        "message": "Définir la date/heure de modification des fichiers joints comme la date/heure de réception du message."
    },
    "settings.showprogressdialog.accesskey": {
        "message": "P"
    },
    "settings.showprogressdialog.label": {
        "message": "Afficher une barre de progression pendant l&apos;extraction"
    },
    "settings.skipidentical.accesskey": {
        "message": "S"
    },
    "settings.skipidentical.label": {
        "message": "Sauter les fichiers de même taille"
    },
    "settings.suggestfolder.addbutton.label": {
        "message": "Ajouter…"
    },
    "settings.suggestfolder.clearbutton.label": {
        "message": "Effacer"
    },
    "settings.suggestfolder.description": {
        "message": "Un dossier peut être suggéré pour extraire en fonction des mot-clés dans les lignes de sujet des messages sélectionnés."
    },
    "settings.suggestfolder.dialogtitle": {
        "message": "Dossiers suggérés"
    },
    "settings.suggestfolder.disregardduplicates.accesskey": {
        "message": "I"
    },
    "settings.suggestfolder.disregardduplicates.label": {
        "message": "Ignorer les mot-clés dupliqués lors du classement des dossiers suggérés ?"
    },
    "settings.suggestfolder.excludedkeywords.label": {
        "message": "Mot-clés à exclure (séparés par des virgules) :"
    },
    "settings.suggestfolder.parents.label": {
        "message": "Dossiers contenant des sous-dossiers pour l&apos;extraction :"
    },
    "settings.windowtitle": {
        "message": "Options de AttachmentExtractor"
    },
    "suggestedFolderDialog.acceptbutton": {
        "message": "Utiliser le dossier sélectionné"
    },
    "suggestedFolderDialog.label": {
        "message": "Dossiers suggérés selon la ligne de sujet de(s) message(s) sélectionné(s) :"
    },
    "suggestedFolderDialog.title": {
        "message": "AttachmentExtractor - Dossiers suggérés"
    },
    "toolbarbutton_label": {
        "message": "Extraire"
    },
    "toolbarbutton_tooltip": {
        "message": "Extraire les pièces jointes des messages sélectionnés"
    }
}