{
    "CSSFileFilterDescription": {
        "message": "Fogli di stile CSS"
    },
    "CSSFilePickerDialogTitle": {
        "message": "Selezione del foglio di stile da utilizzare"
    },
    "ConfirmAutoDetachSettingDialogMessage2": {
        "message": "Enabling detach/delete attachments will remove attachments from all incoming emails that fit the criteria you specified (potentially all emails), based on selected options maybe without further confirmation. \\n\\nIf there is an error it may result in either losing the attachment or the email contents, or both. \\n\\nDo not enable this if you can't risk losing attachments and your incoming emails. \\n\\nUse at your own risk."
    },
    "ConfirmDetachDialogMessage2": {
        "message": "You have chosen to detach attachments with AttachmentExtractor. There will be no further confirmation messages after this and every attachment will be deleted from the selected emails. Once deleted this cannot be undone. \\n\\nStill Proceed?"
    },
    "ConfirmDetachDialogTitle2": {
        "message": "Confirm Detaching"
    },
    "ConfirmDetachSettingDialogMessage2": {
        "message": "Please be aware that this method may not work properly in all cases. \\n\\nIf there is an error it may result in either losing the attachments or the email contents, or both.  If this happens there is no easy way of recovering what's been lost so it is inadvisable to use it with important emails. Create Backups before using this feature. \\n\\nUse at your own risk."
    },
    "ConfirmDetachSettingDialogTitle2": {
        "message": "Warning!"
    },
    "DateTime": {
        "message": "Data/Ora"
    },
    "DeleteLinkedFileMessage": {
        "message": "Sono stati estratti degli allegati da questo messaggio con AttachmentExtractor. Eliminare tali allegati?"
    },
    "DeleteLinkedFileTitle": {
        "message": "Eliminare il file estratto con AttachmentExtractor?"
    },
    "DoneExtractingDialogMessage": {
        "message": "Estrazione completata"
    },
    "DoneExtractingDialogNotifyAgain": {
        "message": "Notifica ogni volta"
    },
    "DoneExtractingDialogTitle": {
        "message": "Fatto"
    },
    "ExecutableFilePickerDialogTitle": {
        "message": "Selezione dell'applicazione da utilizzare"
    },
    "ExtractionEnded": {
        "message": "Estrazione terminata [Data/Ora: $P1$]",
        "placeholders": {
            "P1": {
                "content": "$1"
            }
        }
    },
    "ExtractionStarted": {
        "message": "Estrazione avviata [Data/Ora: $P1$]",
        "placeholders": {
            "P1": {
                "content": "$1"
            }
        }
    },
    "FileNamePatternDialogAskAlways": {
        "message": "Ask always for filename pattern"
    },
    "FileNamePatternDialogMessage": {
        "message": "Modifica il nome del modello dell'allegato"
    },
    "FileNamePatternDialogQuestion": {
        "message": "Imposta il modello come predefinito d'ora in poi"
    },
    "FileNamePatternDialogTitle": {
        "message": "Nome del modello"
    },
    "FileNamePatternFixMessage": {
        "message": "Il nome di file/modello inserito non è valido e potrebbe influire sul corretto funzionamento di AttachmentExtractor\\nSostituirlo con la seguente variabile:\\n %1$s?"
    },
    "FileNamePatternFixTitle": {
        "message": "Suggerimento di sostituzione del nome"
    },
    "FolderPickerDialogTitle": {
        "message": "Selezionare la cartella da utilizzare"
    },
    "FolderPickerDialogTitleDefaultAutoextractPath": {
        "message": "Auto-Extract Save Path not defined - Select folder to use"
    },
    "FolderPickerDialogTitleDefaultSavePath": {
        "message": "Default Save Path not defined - Select folder to use"
    },
    "From": {
        "message": "Da"
    },
    "GenericErrorDialog": {
        "message": "Attenzione!"
    },
    "GenericErrorMessage3": {
        "message": "Something has gone wrong with AttachmentExtractor.  If this happens regularly please log a bug on the bugtracker on https://gitlab.com/ThunderbirdMailDE/attachment-extractor-continued/issues with the error details shown in Thunderbird's Error Console."
    },
    "Heading": {
        "message": "Resoconto di AttachmentExtractor"
    },
    "OverwriteDialogDontAskAgain": {
        "message": "Non chiedere in futuro, eseguire sempre questa azione"
    },
    "OverwriteDialogIgnore": {
        "message": "Escludi il file"
    },
    "OverwriteDialogMessage": {
        "message": "Il file % esiste già. Quale azione effettuare?"
    },
    "OverwriteDialogRename": {
        "message": "Rinomina il file"
    },
    "OverwriteDialogReplace": {
        "message": "Sovrascrivi il file"
    },
    "OverwriteDialogTitle": {
        "message": "File già esistente"
    },
    "ProgressDialogProgressOf": {
        "message": "[%1$s] di [%2$s]"
    },
    "ProgressDialogProgressText": {
        "message": "Messaggio n [%1$s] di [%2$s]"
    },
    "ProgressDialogProgressText2": {
        "message": "Allegato n [%1$s] di [%2$s]"
    },
    "ProgressDialogProgressTextFile": {
        "message": "%1$s KiB di %2$s KiB"
    },
    "ReportTitle": {
        "message": "Resoconto di AttachmentExtractor"
    },
    "StatusTextAttachment": {
        "message": "Estrazione con AttachmentExtractor dell'allegato [%1$s] di [%2$s]"
    },
    "StatusTextEnded": {
        "message": "Estrazione con AttachmentExtractor completata con successo"
    },
    "StatusTextStarting": {
        "message": "Avvio dell'estrazione con AttachmentExtractor degli allegati selezionati in corso…"
    },
    "StatusTextTidying": {
        "message": "Estrazione con AttachmentExtractor dell'allegato %1$s in corso…"
    },
    "Subject": {
        "message": "E-mail"
    },
    "To": {
        "message": "A"
    },
    "WarningDoNotShowAgain": {
        "message": "Do not show this warning again."
    },
    "WarningJustDelete": {
        "message": "This will delete the file attachments from the selected messages without further confirmation. Once deleted this cannot be undone. \\n\\nThe file attachments will NOT be saved! \\n\\nDo you really want this?"
    },
    "WarningSaveThenDelete": {
        "message": "File attachments will be saved and then deleted from the selected messages without further confirmation. Once deleted this cannot be undone. \\n\\nDo you really want this?"
    },
    "WarningTitle": {
        "message": "Warning"
    },
    "browse.accesskey": {
        "message": "B"
    },
    "browse.label": {
        "message": "Browse…"
    },
    "extensionDescription": {
        "message": "Extracts all attachments from selected messages and then can delete, detach and more"
    },
    "extensionName": {
        "message": "AttachmentExtractor Continued"
    },
    "extractFoldersTo_label": {
        "message": "AE Extract from Messages in Folders"
    },
    "extractMessagesTo_label": {
        "message": "AE Extract from Messages"
    },
    "extractMultipleAttTo.label": {
        "message": "AE Extract all"
    },
    "extractSingleAttTo.label": {
        "message": "AE Extract"
    },
    "extractTo.accesskey": {
        "message": "x"
    },
    "extractTo.label": {
        "message": "AE Extract Attachments"
    },
    "extractToBrowse.accesskey": {
        "message": "B"
    },
    "extractToBrowse_label": {
        "message": "Browse…"
    },
    "extractToDefault.accesskey": {
        "message": "D"
    },
    "extractToDefault_label": {
        "message": "To Default Folder"
    },
    "extractToFavoritefolders.accesskey": {
        "message": "F"
    },
    "extractToFavoritefolders_label": {
        "message": "To Favorite Folder"
    },
    "extractToMRUfolders.accesskey": {
        "message": "M"
    },
    "extractToMRUfolders_label": {
        "message": "To Most Recently Used Folder"
    },
    "extractToSuggestfolders.accesskey": {
        "message": "S"
    },
    "extractToSuggestfolders_label": {
        "message": "To Suggested Folder…"
    },
    "extractWithCustomPattern.accesskey": {
        "message": "W"
    },
    "extractWithCustomPattern.label": {
        "message": "With a Custom Filename Pattern"
    },
    "extractWithSubToBrowse.accesskey": {
        "message": "r"
    },
    "extractWithSubToBrowse.label": {
        "message": "Browse… (inc. Subfolders)"
    },
    "extractWithSubToDefault.accesskey": {
        "message": "e"
    },
    "extractWithSubToDefault.label": {
        "message": "To Default Folder (inc. Subfolders)"
    },
    "extractWithSubToFavoritefolders.accesskey": {
        "message": "a"
    },
    "extractWithSubToFavoritefolders.label": {
        "message": "To Favorite Folder (inc. Subfolders)"
    },
    "extractWithSubToMRUfolders.accesskey": {
        "message": "o"
    },
    "extractWithSubToMRUfolders.label": {
        "message": "Most Recently Used Folder (inc. Subfolders)"
    },
    "extractWithSubToSuggestfolders.accesskey": {
        "message": "u"
    },
    "extractWithSubToSuggestfolders.label": {
        "message": "To Suggested Folder (inc. Subfolders)…"
    },
    "filenamepatterndialog.askalways.accesskey": {
        "message": "A"
    },
    "filenamepatterndialog.askalways.label": {
        "message": "Ask always for filename pattern"
    },
    "filenamepatterndialog.checkbox.accesskey": {
        "message": "I"
    },
    "filenamepatterndialog.checkbox.label": {
        "message": "Imposta il modello come predefinito d&apos;ora in poi"
    },
    "filenamepatterndialog.input.label": {
        "message": "Modifica il nome del modello dell&apos;allegato"
    },
    "filenamepatterndialog.title": {
        "message": "Nome del modello"
    },
    "filenamepatterndialog.tokenbutton.label": {
        "message": "Fare clic per aggiungere un token"
    },
    "headerbutton_label": {
        "message": "Estrai con AE"
    },
    "headerbutton_tooltip": {
        "message": "Estrai gli allegati selezionati (clic dx: in…)"
    },
    "justDeleteAllAttachments.accesskey": {
        "message": "u"
    },
    "justDeleteAllAttachments.label": {
        "message": "Elimina allegati da tutti i messaggi nella cartella"
    },
    "justDeleteAttachments.accesskey": {
        "message": "E"
    },
    "justDeleteAttachments_label": {
        "message": "Elimina allegati dai messaggi selezionati"
    },
    "progress.status.attachment.text": {
        "message": "Allegati"
    },
    "progress.status.file.text": {
        "message": "File"
    },
    "progress.status.message.text": {
        "message": "Messaggi"
    },
    "progress.status1.text": {
        "message": "Estrazione in corso…"
    },
    "progress.status2.text": {
        "message": "Attendere…"
    },
    "progress.windowtitle": {
        "message": "AttachmentExtractor in funzione"
    },
    "settings.SeparatedByComma": {
        "message": "(Comma separated)"
    },
    "settings.SeparatedBySemicolon": {
        "message": "(Semicolon separated)"
    },
    "settings.abouttab.label": {
        "message": "Informazioni"
    },
    "settings.advancedmoretab.label": {
        "message": "Avanzate II"
    },
    "settings.advancedtab.label": {
        "message": "Avanzate"
    },
    "settings.after-delete.accesskey": {
        "message": "E"
    },
    "settings.after-delete.label": {
        "message": "Elimina il messaggio"
    },
    "settings.after-detach.accesskey": {
        "message": "n"
    },
    "settings.after-detach.confirm.accesskey": {
        "message": "w"
    },
    "settings.after-detach.confirm.label": {
        "message": "Delete without confirmation"
    },
    "settings.after-detach.label": {
        "message": "Elimina l&apos;allegato dal messaggio"
    },
    "settings.after-read.accesskey": {
        "message": "l"
    },
    "settings.after-read.label": {
        "message": "Marca il messaggio come letto"
    },
    "settings.after-savemessage.accesskey": {
        "message": "m"
    },
    "settings.after-savemessage.label": {
        "message": "Salva il messaggio di testo in un file (nota: stesso modello per estrazione normale ed autoestrazione)"
    },
    "settings.afterextractpolicy.label": {
        "message": "Opzioni possibili dopo l&apos;estrazione degli allegati"
    },
    "settings.autoextract.accesskey": {
        "message": "a"
    },
    "settings.autoextract.cleartriggertag.accesskey": {
        "message": "h"
    },
    "settings.autoextract.cleartriggertag.label": {
        "message": "Elimina le etichette dai messaggi"
    },
    "settings.autoextract.label": {
        "message": "Effettua l&apos;autoestrazione degli allegati quando si ricevono i messaggi"
    },
    "settings.autoextract.onattachmentsonly.accesskey": {
        "message": "o"
    },
    "settings.autoextract.onattachmentsonly.label": {
        "message": "Effettua l&apos;autoestrazione solo per i messaggi contenenti allegati"
    },
    "settings.autoextract.ontriggeronly.accesskey": {
        "message": "z"
    },
    "settings.autoextract.ontriggeronly.label": {
        "message": "Effettua l&apos;autoestrazione degli allegati solo quando c&apos;è un&apos;etichetta corrispondente"
    },
    "settings.autoextract.savefolder.browsebutton": {
        "message": "Sfoglia…"
    },
    "settings.autoextract.savefolder.label": {
        "message": "Percorso di salvataggio degli allegati:"
    },
    "settings.autoextract.triggertag.label": {
        "message": "Effettua l&apos;autoestrazione solo se l&apos;etichetta corrisponde a:"
    },
    "settings.autoextract.waitforall.accesskey": {
        "message": "d"
    },
    "settings.autoextract.waitforall.label": {
        "message": "Attendi il download di tutti i messaggi prima di avviare l&apos;autoestrazione"
    },
    "settings.autotab.label": {
        "message": "Autoestrazione"
    },
    "settings.debug.accesskey": {
        "message": "v"
    },
    "settings.debug.caption": {
        "message": "Debug"
    },
    "settings.debug.label": {
        "message": "Attiva la modalità di debug al riavvio. I messaggi verranno memorizzati nella console degli errori e nel file &apos;aec_debug.txt&apos; presente nella cartella del profilo"
    },
    "settings.doextract.accesskey": {
        "message": "x"
    },
    "settings.doextract.label": {
        "message": "Extract the Attachments."
    },
    "settings.extract.caption": {
        "message": "Salvataggio degli allegati"
    },
    "settings.extract.minimumsize.caption": {
        "message": "Dimensione minima degli allegati"
    },
    "settings.extract.minsize_1024_bytes_SI-Unit_KiB-end.label": {
        "message": " "
    },
    "settings.extract.minsize_1024_bytes_SI-Unit_KiB-start.label": {
        "message": "Salva gli allegati solo se maggiori dei seguenti KiB:"
    },
    "settings.favoritefolder.addbutton.label": {
        "message": "Inserisci…"
    },
    "settings.favoritefolder.clearbutton.label": {
        "message": "Elimina"
    },
    "settings.favoritefolder.description": {
        "message": "The Favorite Folders allow for a given, faster selection."
    },
    "settings.favoritefolder.dialogtitle": {
        "message": "Favorite Folders"
    },
    "settings.favoritefolder.parents.label": {
        "message": "The following folders are displayed as favorites:"
    },
    "settings.filenamepattern.askalways.accesskey": {
        "message": "A"
    },
    "settings.filenamepattern.askalways.label": {
        "message": "Ask always for filename pattern"
    },
    "settings.filenamepattern.explanation.attachment": {
        "message": "Allegato chiamato (#namepart##extpart#):"
    },
    "settings.filenamepattern.explanation.caption": {
        "message": "Esempio delle varie parti di un&apos;e-mail"
    },
    "settings.filenamepattern.explanation.fromauthor2": {
        "message": "E-mail inviata da (#from# &lt;#fromemail#&gt;):"
    },
    "settings.filenamepattern.explanation.mailfolder": {
        "message": "E-mail ricevuta nella cartella (#folder#):"
    },
    "settings.filenamepattern.explanation.recieveddate": {
        "message": "E-mail ricevuta in data (#date#):"
    },
    "settings.filenamepattern.explanation.recieveddateformatted": {
        "message": "Data/ora di applicazione del modello:"
    },
    "settings.filenamepattern.explanation.withcleansubject": {
        "message": "Oggetto dopo eliminazione di &apos;re:&apos;, ecc:"
    },
    "settings.filenamepattern.explanation.withsubject": {
        "message": "Oggetto dell&apos;e-mail (#subject#):"
    },
    "settings.filenamepattern.explanation.wouldgenerate": {
        "message": "Da generare prima:"
    },
    "settings.filenamepattern.explanation.wouldgeneratethen": {
        "message": "Da generare dopo:"
    },
    "settings.filenamepattern.label": {
        "message": "Modello utilizzato per generare nomi di file:"
    },
    "settings.filenamepatterncleansubjectq.accesskey": {
        "message": "a"
    },
    "settings.filenamepatterncleansubjectq.label": {
        "message": "Utilizza"
    },
    "settings.filenamepatterncount.label": {
        "message": "Modello utilizzato per il conteggio dei file duplicati (#count#):"
    },
    "settings.filenamepatterndate.dialogtitle": {
        "message": "Impostazioni del modello per le date (#date#)"
    },
    "settings.filenamepatterndate.editbutton.label": {
        "message": "Modifica…"
    },
    "settings.filenamepatterndate.homepage.label": {
        "message": "Riferimento dei codici di formattazione per #date#:"
    },
    "settings.filenamepatterndate.label": {
        "message": "Modello utilizzato per le date (#date#):"
    },
    "settings.filenamepatterngroup.label": {
        "message": "Generazione del modello"
    },
    "settings.filenametab.label": {
        "message": "Modelli"
    },
    "settings.folderstab.label": {
        "message": "Folders"
    },
    "settings.generaltab.label": {
        "message": "Generali"
    },
    "settings.homepage.label": {
        "message": "Visita il sito web"
    },
    "settings.includeexcludepolicy2-false.accesskey": {
        "message": "u"
    },
    "settings.includeexcludepolicy2-false.label": {
        "message": "Estrai tutti i file eccetto quelli con estensione:"
    },
    "settings.includeexcludepolicy2-true.accesskey": {
        "message": "t"
    },
    "settings.includeexcludepolicy2-true.label": {
        "message": "Estrai solo i file con estensione:"
    },
    "settings.includeexcludepolicy2.label": {
        "message": "Estrazione dei file"
    },
    "settings.inlinepolicy.accesskey": {
        "message": "I"
    },
    "settings.inlinepolicy.label": {
        "message": "Estrai anche le immagini incorporate (&apos;in linea&apos;)"
    },
    "settings.noextract.accesskey": {
        "message": "D"
    },
    "settings.noextract.label": {
        "message": "Disattiva il salvataggio degli allegati"
    },
    "settings.notifywhendone.accesskey": {
        "message": "o"
    },
    "settings.notifywhendone.label": {
        "message": "Notifica quando l&apos;estrazione degli allegati viene completata"
    },
    "settings.overwrite-ask.accesskey": {
        "message": "v"
    },
    "settings.overwrite-ask.label": {
        "message": "Chiedi ogni volta"
    },
    "settings.overwrite-ignore.accesskey": {
        "message": "C"
    },
    "settings.overwrite-ignore.label": {
        "message": "Conserva il file esistente, non estrarre l&apos;allegato"
    },
    "settings.overwrite-rename.accesskey": {
        "message": "R"
    },
    "settings.overwrite-rename.label": {
        "message": "Rinomina il file allegato per non sovrascrivere il file già esistente"
    },
    "settings.overwrite-replace.accesskey": {
        "message": "S"
    },
    "settings.overwrite-replace.label": {
        "message": "Sovrascrivi il file esistente con il nuovo allegato"
    },
    "settings.overwritepolicy.label": {
        "message": "Azione da effettuare quando l&apos;allegato ha lo stesso nome di un file già esistente"
    },
    "settings.posttab.label": {
        "message": "Dopo l&apos;estrazione"
    },
    "settings.progressdialogtext.accesskey": {
        "message": "M"
    },
    "settings.progressdialogtext.label": {
        "message": "Mostra oggetto del messaggio e nome degli allegati nella finestra di avanzamento"
    },
    "settings.protocolltab.label": {
        "message": "Logs"
    },
    "settings.queuerequests.caption": {
        "message": "Estrazioni in coda"
    },
    "settings.queuerequests.disabled.accesskey": {
        "message": "x"
    },
    "settings.queuerequests.disabled.label": {
        "message": "Avvia AttachmentExtractor ogni volta che viene richiesta l&apos;estrazione"
    },
    "settings.queuerequests.enabled.accesskey": {
        "message": "A"
    },
    "settings.queuerequests.enabled.label": {
        "message": "Attendi e metti in coda ogni richiesta di estrazione effettuata mentre AttachmentExtractor è avviata"
    },
    "settings.reportgen.accesskey": {
        "message": "G"
    },
    "settings.reportgen.button.label": {
        "message": "Opzioni del generatore di resoconti…"
    },
    "settings.reportgen.caption": {
        "message": "Generatore di resoconto HTML"
    },
    "settings.reportgen.cssfile.caption": {
        "message": "Foglio di stile da utilizzare per il resoconto:"
    },
    "settings.reportgen.embedcss.accesskey": {
        "message": "E"
    },
    "settings.reportgen.embedcss.label": {
        "message": "Incorpora le informazioni sullo stile nel resoconto, piuttosto che collegarsi al foglio di stile"
    },
    "settings.reportgen.label": {
        "message": "Genera un resoconto ogni volta che si avvia AttachmentExtractor"
    },
    "settings.reportgen.reportname2.label": {
        "message": "Nome del file del resoconto: "
    },
    "settings.reportgen.thumbnail.accesskey": {
        "message": "s"
    },
    "settings.reportgen.thumbnail.label": {
        "message": "Quando possibile utilizza l&apos;anteprima di immagini per gli allegati"
    },
    "settings.reporttab.label": {
        "message": "Opzioni del generatore di resoconti"
    },
    "settings.requiresrestart.label": {
        "message": "(Riavviare Thunderbird per rendere effettive le modifiche)"
    },
    "settings.returnreceipts.button.label": {
        "message": "Ricevute di ritorno…"
    },
    "settings.returnreceipts.dialogtitle": {
        "message": "Ricevute di ritorno"
    },
    "settings.returnreceipts.enabled.accesskey": {
        "message": "v"
    },
    "settings.returnreceipts.enabled.label": {
        "message": "Invia le ricevute di ritorno quando vengono richieste"
    },
    "settings.returnreceipts.label": {
        "message": "Marcando un messaggio come letto le ricevute di ritorno verranno inviate automaticamente con AE"
    },
    "settings.returnreceipts.override.caption": {
        "message": "Azione da effettuare per le ricevute di ritorno"
    },
    "settings.returnreceipts.override.disabled.accesskey": {
        "message": "A"
    },
    "settings.returnreceipts.override.disabled.label": {
        "message": "Applica le impostazioni di Thunderbird relative alle ricevute di ritorno"
    },
    "settings.returnreceipts.override.enabled.accesskey": {
        "message": "I"
    },
    "settings.returnreceipts.override.enabled.label": {
        "message": "Ignora l&apos;impostazione &apos;Chiedi&apos; ed invia le ricevute di ritorno con pop-up d&apos;avviso"
    },
    "settings.savefolder.browsebutton": {
        "message": "Sfoglia…"
    },
    "settings.savefolder.label": {
        "message": "Cartella di salvataggio predefinita"
    },
    "settings.savefolders.caption": {
        "message": "Cartelle per l&apos;estrazione degli allegati"
    },
    "settings.savepathmru.accesskey": {
        "message": "u"
    },
    "settings.savepathmru.caption": {
        "message": "Cartelle più recentemente utilizzate"
    },
    "settings.savepathmru.clearbutton.label": {
        "message": "Elimina ora"
    },
    "settings.savepathmru.count.label1": {
        "message": "Ultime cartelle da conservare:"
    },
    "settings.savepathmru.count.label2": {
        "message": " "
    },
    "settings.savepathmru.label": {
        "message": "Attiva una lista di cartelle più recentemente utilizzate"
    },
    "settings.setdatetoemail.accesskey": {
        "message": "o"
    },
    "settings.setdatetoemail.label": {
        "message": "Imposta data/ora della modifica dell&apos;allegato in base a data/ora del messaggio"
    },
    "settings.showprogressdialog.accesskey": {
        "message": "M"
    },
    "settings.showprogressdialog.label": {
        "message": "Mostra una finestra di avanzamento durante l&apos;estrazione"
    },
    "settings.skipidentical.accesskey": {
        "message": "d"
    },
    "settings.skipidentical.label": {
        "message": "Escludi i file di dimensioni identiche"
    },
    "settings.suggestfolder.addbutton.label": {
        "message": "Inserisci…"
    },
    "settings.suggestfolder.clearbutton.label": {
        "message": "Elimina"
    },
    "settings.suggestfolder.description": {
        "message": "È possibile suggerire una cartella nella quale estrarre gli allegati in base a parole chiave presenti nel campo Oggetto dei messaggi selezionati"
    },
    "settings.suggestfolder.dialogtitle": {
        "message": "Opzioni delle cartelle suggerite"
    },
    "settings.suggestfolder.disregardduplicates.accesskey": {
        "message": "I"
    },
    "settings.suggestfolder.disregardduplicates.label": {
        "message": "Ignora le parole chiave duplicate quando si ordinano le cartelle suggerite"
    },
    "settings.suggestfolder.excludedkeywords.label": {
        "message": "Parole chiave da escludere (separate da virgola):"
    },
    "settings.suggestfolder.parents.label": {
        "message": "Cartelle e sottocartelle nelle quali estrarre gli allegati"
    },
    "settings.windowtitle": {
        "message": "Impostazioni di AttachmentExtractor"
    },
    "suggestedFolderDialog.acceptbutton": {
        "message": "Utilizza cartella suggerita"
    },
    "suggestedFolderDialog.label": {
        "message": "Cartelle suggerite in base a parole chiave presenti nel campo Oggetto dei messaggi selezionati"
    },
    "suggestedFolderDialog.title": {
        "message": "Cartelle suggerite di AttachmentExtractor"
    },
    "toolbarbutton_label": {
        "message": "Estrai con AE"
    },
    "toolbarbutton_tooltip": {
        "message": "Estrai gli allegati selezionati (clic dx: in…)"
    }
}