{
    "CSSFileFilterDescription": {
        "message": "Súbory CSS Style"
    },
    "CSSFilePickerDialogTitle": {
        "message": "Vybrať StyleSheet na použitie"
    },
    "ConfirmAutoDetachSettingDialogMessage2": {
        "message": "Enabling detach/delete attachments will remove attachments from all incoming emails that fit the criteria you specified (potentially all emails), based on selected options maybe without further confirmation. \\n\\nIf there is an error it may result in either losing the attachment or the email contents, or both. \\n\\nDo not enable this if you can't risk losing attachments and your incoming emails. \\n\\nUse at your own risk."
    },
    "ConfirmDetachDialogMessage2": {
        "message": "You have chosen to detach attachments with AttachmentExtractor. There will be no further confirmation messages after this and every attachment will be deleted from the selected emails. Once deleted this cannot be undone. \\n\\nStill Proceed?"
    },
    "ConfirmDetachDialogTitle2": {
        "message": "Confirm Detaching"
    },
    "ConfirmDetachSettingDialogMessage2": {
        "message": "Please be aware that this method may not work properly in all cases. \\n\\nIf there is an error it may result in either losing the attachments or the email contents, or both.  If this happens there is no easy way of recovering what's been lost so it is inadvisable to use it with important emails. Create Backups before using this feature. \\n\\nUse at your own risk."
    },
    "ConfirmDetachSettingDialogTitle2": {
        "message": "Warning!"
    },
    "DateTime": {
        "message": "Deň/Čas"
    },
    "DeleteLinkedFileMessage": {
        "message": "Predtým ste použili AttachmentExtractor na extrahovanie príloh z tejto správy. Prajete si ich odstrániť z počítača?"
    },
    "DeleteLinkedFileTitle": {
        "message": "AttachmentExtractor: Zmazať extrahovaný súbor?"
    },
    "DoneExtractingDialogMessage": {
        "message": "Ukladanie príloh bolo dokončené!"
    },
    "DoneExtractingDialogNotifyAgain": {
        "message": "Vždy zobrazovať toto okno."
    },
    "DoneExtractingDialogTitle": {
        "message": "Dokončené"
    },
    "ExecutableFilePickerDialogTitle": {
        "message": "Vybrať aplikáciu na použitie"
    },
    "ExtractionEnded": {
        "message": "Vyňatie ukončené [Deň/Čas: $P1$]",
        "placeholders": {
            "P1": {
                "content": "$1"
            }
        }
    },
    "ExtractionStarted": {
        "message": "Vyňatie zahájené [Deň/Čas: $P1$]",
        "placeholders": {
            "P1": {
                "content": "$1"
            }
        }
    },
    "FileNamePatternDialogAskAlways": {
        "message": "Ask always for filename pattern"
    },
    "FileNamePatternDialogMessage": {
        "message": "Upraviť názov vzoru prílohy"
    },
    "FileNamePatternDialogQuestion": {
        "message": "Nastaviť vzor naďalej ako pôvodný"
    },
    "FileNamePatternDialogTitle": {
        "message": "Ukladá prílohy z vybraných správ."
    },
    "FileNamePatternFixMessage": {
        "message": "Názov súboru alebo čislo vzoru, ktorý ste vložili je nesprávny a môže vypnúť AttachmentExtractor.\\nZmeniť na:\\n %1$s?"
    },
    "FileNamePatternFixTitle": {
        "message": "Odporúčaná oprava"
    },
    "FolderPickerDialogTitle": {
        "message": "Vybrať priečinok pre použitie"
    },
    "FolderPickerDialogTitleDefaultAutoextractPath": {
        "message": "Auto-Extract Save Path not defined - Select folder to use"
    },
    "FolderPickerDialogTitleDefaultSavePath": {
        "message": "Default Save Path not defined - Select folder to use"
    },
    "From": {
        "message": "Od"
    },
    "GenericErrorDialog": {
        "message": "Hop!"
    },
    "GenericErrorMessage3": {
        "message": "Something has gone wrong with AttachmentExtractor.  If this happens regularly please log a bug on the bugtracker on https://gitlab.com/ThunderbirdMailDE/attachment-extractor-continued/issues with the error details shown in Thunderbird's Error Console."
    },
    "Heading": {
        "message": "Správa AttachmentExtractor"
    },
    "OverwriteDialogDontAskAgain": {
        "message": "Vždy použiť túto možnosť"
    },
    "OverwriteDialogIgnore": {
        "message": "Preskočiť túto prílohu"
    },
    "OverwriteDialogMessage": {
        "message": "% už existuje! Prajete si:"
    },
    "OverwriteDialogRename": {
        "message": "Uložiť prílohu pod novým názvom"
    },
    "OverwriteDialogReplace": {
        "message": "Prepísať pôvodný súbor"
    },
    "OverwriteDialogTitle": {
        "message": "Súbor už existuje!"
    },
    "ProgressDialogProgressOf": {
        "message": "[%1$s] z [%2$s]"
    },
    "ProgressDialogProgressText": {
        "message": "Správa [%1$s] z [%2$s]"
    },
    "ProgressDialogProgressText2": {
        "message": "Príloha [%1$s] z [%2$s]"
    },
    "ProgressDialogProgressTextFile": {
        "message": "%1$s KiB z %2$s KiB"
    },
    "ReportTitle": {
        "message": "AE ReportGen správa"
    },
    "StatusTextAttachment": {
        "message": "AE ukladanie: ukladanie [%1$s] z [%2$s]"
    },
    "StatusTextEnded": {
        "message": "AE ukladanie dokončené"
    },
    "StatusTextStarting": {
        "message": "Zahájenie AE ukladanie s vybranou prílohou"
    },
    "StatusTextTidying": {
        "message": "AE ukladanie: ukladanie prílohy %1$ dokončené za…"
    },
    "Subject": {
        "message": "Pošta"
    },
    "To": {
        "message": "Pre"
    },
    "WarningDoNotShowAgain": {
        "message": "Do not show this warning again."
    },
    "WarningJustDelete": {
        "message": "This will delete the file attachments from the selected messages without further confirmation. Once deleted this cannot be undone. \\n\\nThe file attachments will NOT be saved! \\n\\nDo you really want this?"
    },
    "WarningSaveThenDelete": {
        "message": "File attachments will be saved and then deleted from the selected messages without further confirmation. Once deleted this cannot be undone. \\n\\nDo you really want this?"
    },
    "WarningTitle": {
        "message": "Warning"
    },
    "browse.accesskey": {
        "message": "B"
    },
    "browse.label": {
        "message": "Browse…"
    },
    "extensionDescription": {
        "message": "Extracts all attachments from selected messages and then can delete, detach and more"
    },
    "extensionName": {
        "message": "AttachmentExtractor Continued"
    },
    "extractFoldersTo_label": {
        "message": "AE Extract from Messages in Folders"
    },
    "extractMessagesTo_label": {
        "message": "AE Extract from Messages"
    },
    "extractMultipleAttTo.label": {
        "message": "AE Extract all"
    },
    "extractSingleAttTo.label": {
        "message": "AE Extract"
    },
    "extractTo.accesskey": {
        "message": "x"
    },
    "extractTo.label": {
        "message": "AE Extract Attachments"
    },
    "extractToBrowse.accesskey": {
        "message": "B"
    },
    "extractToBrowse_label": {
        "message": "Browse…"
    },
    "extractToDefault.accesskey": {
        "message": "D"
    },
    "extractToDefault_label": {
        "message": "To Default Folder"
    },
    "extractToFavoritefolders.accesskey": {
        "message": "F"
    },
    "extractToFavoritefolders_label": {
        "message": "To Favorite Folder"
    },
    "extractToMRUfolders.accesskey": {
        "message": "M"
    },
    "extractToMRUfolders_label": {
        "message": "To Most Recently Used Folder"
    },
    "extractToSuggestfolders.accesskey": {
        "message": "S"
    },
    "extractToSuggestfolders_label": {
        "message": "To Suggested Folder…"
    },
    "extractWithCustomPattern.accesskey": {
        "message": "W"
    },
    "extractWithCustomPattern.label": {
        "message": "With a Custom Filename Pattern"
    },
    "extractWithSubToBrowse.accesskey": {
        "message": "r"
    },
    "extractWithSubToBrowse.label": {
        "message": "Browse… (inc. Subfolders)"
    },
    "extractWithSubToDefault.accesskey": {
        "message": "e"
    },
    "extractWithSubToDefault.label": {
        "message": "To Default Folder (inc. Subfolders)"
    },
    "extractWithSubToFavoritefolders.accesskey": {
        "message": "a"
    },
    "extractWithSubToFavoritefolders.label": {
        "message": "To Favorite Folder (inc. Subfolders)"
    },
    "extractWithSubToMRUfolders.accesskey": {
        "message": "o"
    },
    "extractWithSubToMRUfolders.label": {
        "message": "Most Recently Used Folder (inc. Subfolders)"
    },
    "extractWithSubToSuggestfolders.accesskey": {
        "message": "u"
    },
    "extractWithSubToSuggestfolders.label": {
        "message": "To Suggested Folder (inc. Subfolders)…"
    },
    "filenamepatterndialog.askalways.accesskey": {
        "message": "A"
    },
    "filenamepatterndialog.askalways.label": {
        "message": "Ask always for filename pattern"
    },
    "filenamepatterndialog.checkbox.accesskey": {
        "message": "N"
    },
    "filenamepatterndialog.checkbox.label": {
        "message": "Nastaviť vzor ako predvolený odteraz"
    },
    "filenamepatterndialog.input.label": {
        "message": "Upraviť názov vzoru prílohy:"
    },
    "filenamepatterndialog.title": {
        "message": "Názov vzoru vstupu"
    },
    "filenamepatterndialog.tokenbutton.label": {
        "message": "Kliknúť na pridať znak"
    },
    "headerbutton_label": {
        "message": "Uložiť AE"
    },
    "headerbutton_tooltip": {
        "message": "Uložiť prílohy z vybraných správ"
    },
    "justDeleteAllAttachments.accesskey": {
        "message": "U"
    },
    "justDeleteAllAttachments.label": {
        "message": "Odstrániť prílohy zo všetkých správ v priečinku"
    },
    "justDeleteAttachments.accesskey": {
        "message": "O"
    },
    "justDeleteAttachments_label": {
        "message": "Odstrániť prílohy z vybratých správ"
    },
    "progress.status.attachment.text": {
        "message": "Prílohy"
    },
    "progress.status.file.text": {
        "message": "Priebeh"
    },
    "progress.status.message.text": {
        "message": "Správy"
    },
    "progress.status1.text": {
        "message": "Ukladá sa…"
    },
    "progress.status2.text": {
        "message": "Prosím, čakajte."
    },
    "progress.windowtitle": {
        "message": "Priebeh ukladania príloh"
    },
    "settings.SeparatedByComma": {
        "message": "(Comma separated)"
    },
    "settings.SeparatedBySemicolon": {
        "message": "(Semicolon separated)"
    },
    "settings.abouttab.label": {
        "message": "O rozšírení"
    },
    "settings.advancedmoretab.label": {
        "message": "Viac"
    },
    "settings.advancedtab.label": {
        "message": "Pokročilé"
    },
    "settings.after-delete.accesskey": {
        "message": "S"
    },
    "settings.after-delete.label": {
        "message": "Zmazať správy?"
    },
    "settings.after-detach.accesskey": {
        "message": "V"
    },
    "settings.after-detach.confirm.accesskey": {
        "message": "w"
    },
    "settings.after-detach.confirm.label": {
        "message": "Delete without confirmation"
    },
    "settings.after-detach.label": {
        "message": "Vyčleniť prílohy zo správ?"
    },
    "settings.after-read.accesskey": {
        "message": "K"
    },
    "settings.after-read.label": {
        "message": "Označiť správy ako prečítané?"
    },
    "settings.after-savemessage.accesskey": {
        "message": "U"
    },
    "settings.after-savemessage.label": {
        "message": "Uložiť textovú správu do súboru. (pozn.: rovnaký vzor pre normálne a auto-uloženie)"
    },
    "settings.afterextractpolicy.label": {
        "message": "Po dokončení ukladania:"
    },
    "settings.autoextract.accesskey": {
        "message": "A"
    },
    "settings.autoextract.cleartriggertag.accesskey": {
        "message": "V"
    },
    "settings.autoextract.cleartriggertag.label": {
        "message": "Vyčistiť značky zo správy?"
    },
    "settings.autoextract.label": {
        "message": "Automaticky uložiť prílohu"
    },
    "settings.autoextract.onattachmentsonly.accesskey": {
        "message": "s"
    },
    "settings.autoextract.onattachmentsonly.label": {
        "message": "Len spustiť Auto-oddelenie so správou, v ktorej sa vyskytujú prílohy"
    },
    "settings.autoextract.ontriggeronly.accesskey": {
        "message": "L"
    },
    "settings.autoextract.ontriggeronly.label": {
        "message": "Len Autouloženie, ak bola zistená príloha so zodpovedajúcou značkou."
    },
    "settings.autoextract.savefolder.browsebutton": {
        "message": "Hľadať…"
    },
    "settings.autoextract.savefolder.label": {
        "message": "Uložiť cestu pre prílohy:"
    },
    "settings.autoextract.triggertag.label": {
        "message": "Uložiť správy ak značky zodpovedajú:"
    },
    "settings.autoextract.waitforall.accesskey": {
        "message": "P"
    },
    "settings.autoextract.waitforall.label": {
        "message": "Pred zahájením Autoukladania počkať, kým budú všetky správy stiahnuté."
    },
    "settings.autotab.label": {
        "message": "Auto-ukladanie"
    },
    "settings.debug.accesskey": {
        "message": "D"
    },
    "settings.debug.caption": {
        "message": "Odstraňovanie chýb"
    },
    "settings.debug.label": {
        "message": "Zapnúť režim odstraňovania chýb pri reštartovaní. Správy sú prihlásené do konzoly a zapísané do &apos;aec_debug.txt&apos; v jeho profile."
    },
    "settings.doextract.accesskey": {
        "message": "x"
    },
    "settings.doextract.label": {
        "message": "Extract the Attachments."
    },
    "settings.extract.caption": {
        "message": "Uloženie príloh"
    },
    "settings.extract.minimumsize.caption": {
        "message": "Minimálna veľkosť kontroly"
    },
    "settings.extract.minsize_1024_bytes_SI-Unit_KiB-end.label": {
        "message": "KiB"
    },
    "settings.extract.minsize_1024_bytes_SI-Unit_KiB-start.label": {
        "message": "Uložiť prílohy len ak sú väčšie ako:"
    },
    "settings.favoritefolder.addbutton.label": {
        "message": "Pridať…"
    },
    "settings.favoritefolder.clearbutton.label": {
        "message": "Vyčistiť"
    },
    "settings.favoritefolder.description": {
        "message": "The Favorite Folders allow for a given, faster selection."
    },
    "settings.favoritefolder.dialogtitle": {
        "message": "Favorite Folders"
    },
    "settings.favoritefolder.parents.label": {
        "message": "The following folders are displayed as favorites:"
    },
    "settings.filenamepattern.askalways.accesskey": {
        "message": "A"
    },
    "settings.filenamepattern.askalways.label": {
        "message": "Ask always for filename pattern"
    },
    "settings.filenamepattern.explanation.attachment": {
        "message": "Názov prílohy (#namepart##extpart#):"
    },
    "settings.filenamepattern.explanation.caption": {
        "message": "Založený na emaile prijatom s nasledujúcimi vlastnosťami:"
    },
    "settings.filenamepattern.explanation.fromauthor2": {
        "message": "Od autora (#from# &lt;#fromemail#&gt;):"
    },
    "settings.filenamepattern.explanation.mailfolder": {
        "message": "V poštovom priečinku (#folder#):"
    },
    "settings.filenamepattern.explanation.recieveddate": {
        "message": "Prijatý (#dátum#):"
    },
    "settings.filenamepattern.explanation.recieveddateformatted": {
        "message": "Dátum/Čas po potvrdení šablóny"
    },
    "settings.filenamepattern.explanation.withcleansubject": {
        "message": "Predmet po vyňatí z &apos;re:&apos;,etc :"
    },
    "settings.filenamepattern.explanation.withsubject": {
        "message": "Predmet pošty (#subject#) z:"
    },
    "settings.filenamepattern.explanation.wouldgenerate": {
        "message": "Najprv vytvoril:"
    },
    "settings.filenamepattern.explanation.wouldgeneratethen": {
        "message": "Pokračoval podľa:"
    },
    "settings.filenamepattern.label": {
        "message": "Vzor použitý na generovanie názvu súborov:"
    },
    "settings.filenamepatterncleansubjectq.accesskey": {
        "message": "P"
    },
    "settings.filenamepatterncleansubjectq.label": {
        "message": "Použiť?"
    },
    "settings.filenamepatterncount.label": {
        "message": "Vzor použitý pre duplicitný názov súboru (#count#):"
    },
    "settings.filenamepatterndate.dialogtitle": {
        "message": "Nastavenie šablóny #Date#"
    },
    "settings.filenamepatterndate.editbutton.label": {
        "message": "Upraviť šablónu dátumu"
    },
    "settings.filenamepatterndate.homepage.label": {
        "message": "Odkaz formátovania kódov pre #date#:"
    },
    "settings.filenamepatterndate.label": {
        "message": "Vzor použitý pre dátum (#date#):"
    },
    "settings.filenamepatterngroup.label": {
        "message": "Vzor vytvárania názvu súboru:"
    },
    "settings.filenametab.label": {
        "message": "Názvy súborov"
    },
    "settings.folderstab.label": {
        "message": "Folders"
    },
    "settings.generaltab.label": {
        "message": "Všeobecné"
    },
    "settings.homepage.label": {
        "message": "Domovská stránka AttachmentExtractor a popis funkcií:"
    },
    "settings.includeexcludepolicy2-false.accesskey": {
        "message": "X"
    },
    "settings.includeexcludepolicy2-false.label": {
        "message": "Uložiť všetky súbory okrem tých, kde názov obsahuje:"
    },
    "settings.includeexcludepolicy2-true.accesskey": {
        "message": "U"
    },
    "settings.includeexcludepolicy2-true.label": {
        "message": "Uložiť len tie súbory ktorých názov obsahuje:"
    },
    "settings.includeexcludepolicy2.label": {
        "message": "Stratégia filtrovania názvu súboru:"
    },
    "settings.inlinepolicy.accesskey": {
        "message": "T"
    },
    "settings.inlinepolicy.label": {
        "message": "Tiež ukladať vložené obrázky"
    },
    "settings.noextract.accesskey": {
        "message": "V"
    },
    "settings.noextract.label": {
        "message": "Vypnúť ukladanie príloh"
    },
    "settings.notifywhendone.accesskey": {
        "message": "D"
    },
    "settings.notifywhendone.label": {
        "message": "Zobrazovať oznámenie o dokončení ukladania."
    },
    "settings.overwrite-ask.accesskey": {
        "message": "O"
    },
    "settings.overwrite-ask.label": {
        "message": "Opýtať sa"
    },
    "settings.overwrite-ignore.accesskey": {
        "message": "Z"
    },
    "settings.overwrite-ignore.label": {
        "message": "Vždy zachovať pôvodný súbor a neukladať prílohu"
    },
    "settings.overwrite-rename.accesskey": {
        "message": "U"
    },
    "settings.overwrite-rename.label": {
        "message": "Uložiť prílohu pod novým názvom, a tak zachovať obidve"
    },
    "settings.overwrite-replace.accesskey": {
        "message": "N"
    },
    "settings.overwrite-replace.label": {
        "message": "Vždy nahradiť pôvodný súbor"
    },
    "settings.overwritepolicy.label": {
        "message": "Čo robiť v prípade, že existuje súbor s rovnakým názvom ako ukladaná príloha?"
    },
    "settings.posttab.label": {
        "message": "Po oddelení"
    },
    "settings.progressdialogtext.accesskey": {
        "message": "U"
    },
    "settings.progressdialogtext.label": {
        "message": "Zobraziť predmet správy a názov prílohy v okne."
    },
    "settings.protocolltab.label": {
        "message": "Logs"
    },
    "settings.queuerequests.caption": {
        "message": "Vyňatie v poradí"
    },
    "settings.queuerequests.disabled.accesskey": {
        "message": "S"
    },
    "settings.queuerequests.disabled.label": {
        "message": "Spustiť AttachmentExtractor vždy ak je vyňatie vyžadované."
    },
    "settings.queuerequests.enabled.accesskey": {
        "message": "C"
    },
    "settings.queuerequests.enabled.label": {
        "message": "Čakať a zaradiť do fronty všetky vyňatia pokiaľ je AE spustený."
    },
    "settings.reportgen.accesskey": {
        "message": "s"
    },
    "settings.reportgen.button.label": {
        "message": "Nastavenia Generátora hlásení"
    },
    "settings.reportgen.caption": {
        "message": "Generátor HTML správy"
    },
    "settings.reportgen.cssfile.caption": {
        "message": "Štýl pre použitie srávy:"
    },
    "settings.reportgen.embedcss.accesskey": {
        "message": "R"
    },
    "settings.reportgen.embedcss.label": {
        "message": "Radšej vložiť informáciu o štýle do správy ako odkaz na štýl."
    },
    "settings.reportgen.label": {
        "message": "Vytvoriť správu vždy, keď je AttachmentExtractor spustený."
    },
    "settings.reportgen.reportname2.label": {
        "message": "Názov súboru (alebo absolútna cesta) správy"
    },
    "settings.reportgen.thumbnail.accesskey": {
        "message": "A"
    },
    "settings.reportgen.thumbnail.label": {
        "message": "Ak je to možné, použiť obrázky miniatúr pre prílohy."
    },
    "settings.reporttab.label": {
        "message": "Generátor hlásení"
    },
    "settings.requiresrestart.label": {
        "message": "(Vyžaduje reštartovanie TB)"
    },
    "settings.returnreceipts.button.label": {
        "message": "Potvrdiť príjem…"
    },
    "settings.returnreceipts.dialogtitle": {
        "message": "Potvrdiť príjem"
    },
    "settings.returnreceipts.enabled.accesskey": {
        "message": "O"
    },
    "settings.returnreceipts.enabled.label": {
        "message": "Odoslať potvrdenie prijatia ak je vyžadované"
    },
    "settings.returnreceipts.label": {
        "message": "AttachmentExtractor môže odoslať potvrdenie prijatia automaticky ak je správa označená ako prečítaná."
    },
    "settings.returnreceipts.override.caption": {
        "message": "Požiadavky na potvrdenie prijatia:"
    },
    "settings.returnreceipts.override.disabled.accesskey": {
        "message": "P"
    },
    "settings.returnreceipts.override.disabled.label": {
        "message": "Použiť nastavenia Thunderbirdu"
    },
    "settings.returnreceipts.override.enabled.accesskey": {
        "message": "O"
    },
    "settings.returnreceipts.override.enabled.label": {
        "message": "Prepísať nastavenia &quot;opýtať sa&quot; a odoslať potvrdenie s výzvou"
    },
    "settings.savefolder.browsebutton": {
        "message": "Vyhľadávať…"
    },
    "settings.savefolder.label": {
        "message": "Pôvodná cesta uloženia:"
    },
    "settings.savefolders.caption": {
        "message": "Kde majú byť prílohy uložené?"
    },
    "settings.savepathmru.accesskey": {
        "message": "M"
    },
    "settings.savepathmru.caption": {
        "message": "Najčastejšie používané priečinky"
    },
    "settings.savepathmru.clearbutton.label": {
        "message": "Vyčistiť teraz"
    },
    "settings.savepathmru.count.label1": {
        "message": "Uložiť posledné"
    },
    "settings.savepathmru.count.label2": {
        "message": "priečinky"
    },
    "settings.savepathmru.label": {
        "message": "Zapnúť zoznam najčastejšie používaných priečinkov"
    },
    "settings.setdatetoemail.accesskey": {
        "message": "N"
    },
    "settings.setdatetoemail.label": {
        "message": "Nastavte modifikačný súbor dátum/čas prílohy k dátum/čas prijatia správy."
    },
    "settings.showprogressdialog.accesskey": {
        "message": "Z"
    },
    "settings.showprogressdialog.label": {
        "message": "Zobraziť okno priebehu načítania počas vynímania."
    },
    "settings.skipidentical.accesskey": {
        "message": "P"
    },
    "settings.skipidentical.label": {
        "message": "Preskakovať rovnako veľké súbory"
    },
    "settings.suggestfolder.addbutton.label": {
        "message": "Pridať…"
    },
    "settings.suggestfolder.clearbutton.label": {
        "message": "Vyčistiť"
    },
    "settings.suggestfolder.description": {
        "message": "Priečinok môže byť navrhnutý na oddelenie na základe kľúčových slov v predmete správy, ktorú ste vybrali."
    },
    "settings.suggestfolder.dialogtitle": {
        "message": "Odporúčané priečinky"
    },
    "settings.suggestfolder.disregardduplicates.accesskey": {
        "message": "I"
    },
    "settings.suggestfolder.disregardduplicates.label": {
        "message": "Ignorovať duplicitné kľúčové slová pri klasifikácii odporúčaných priečinkov?"
    },
    "settings.suggestfolder.excludedkeywords.label": {
        "message": "Vylúčiť kľúčové slová: (oddelené čiarkou)"
    },
    "settings.suggestfolder.parents.label": {
        "message": "Priečinky obsahujúce potenciálne podpriečinky pre oddelenie do:"
    },
    "settings.windowtitle": {
        "message": "Možnosti rozšírenia AttachmentExtractor"
    },
    "suggestedFolderDialog.acceptbutton": {
        "message": "Použiť vybratý priečinok"
    },
    "suggestedFolderDialog.label": {
        "message": "Odporúčané priečinky založené na  črtoch predmetu vybratých správ:"
    },
    "suggestedFolderDialog.title": {
        "message": "AttachmentExtractor - Odporúčané priečinky"
    },
    "toolbarbutton_label": {
        "message": "Uložiť AE"
    },
    "toolbarbutton_tooltip": {
        "message": "Uložiť prílohy z vybraných správ"
    }
}